---
http_interactions:
- request:
    method: get
    uri: https://eventdata.datacite.org/api/deposits?page=1&per_page=50
    body:
      encoding: US-ASCII
      string: ''
    headers:
      User-Agent:
      - Maremma - http://api.local
      Accept:
      - text/html,application/json,application/xml;q=0.9, text/plain;q=0.8,image/png,*/*;q=0.5
  response:
    status:
      code: 200
      message: ''
    headers:
      Server:
      - nginx/1.11.3
      Date:
      - Tue, 04 Oct 2016 21:44:19 GMT
      Content-Type:
      - application/json; charset=utf-8
      Connection:
      - keep-alive
      Status:
      - 200 OK
      Cache-Control:
      - max-age=0, private, must-revalidate
      Access-Control-Allow-Origin:
      - "*"
      Vary:
      - Accept-Encoding
      Access-Control-Max-Age:
      - '1728000'
      X-Xss-Protection:
      - 1; mode=block
      X-Request-Id:
      - e8ae190b-b01f-40be-a52a-169359853294
      Access-Control-Allow-Headers:
      - Origin, Content-Type, Accept, Authorization, Token
      Access-Control-Allow-Methods:
      - GET, POST, OPTIONS
      Etag:
      - W/"b6cd0687bde64b39578a53acd723842b"
      X-Frame-Options:
      - SAMEORIGIN
      X-Runtime:
      - '0.750207'
      X-Content-Type-Options:
      - nosniff
      X-Powered-By:
      - Phusion Passenger 5.0.30
    body:
      encoding: UTF-8
      string: '{"meta":{"status":"ok","message-type":"deposit-list","message-version":"v7","total":1592,"total_pages":32,"page":1},"deposits":[{"id":"49f6eb94-f3cc-42a5-b95b-50f0e53f301c","state":"waiting","message_type":"publisher","message_action":"create","source_token":"1e2f84dc-ecda-4b62-bb8e-fb0536cc73b6","subj_id":"ZBW.ZOEBIS","relation_type_id":"references","source_id":"datacite_datacentre","total":1,"occurred_at":"2016-10-03T19:45:14Z","timestamp":"2016-10-03T19:45:14Z","subj":{"name":"ZBW.ZOEBIS","title":"Zentrum
        für ökonomische Bildung in Siegen","registration_agency_id":"datacite","active":true},"obj":{}},{"id":"8b163c0d-28e1-4382-a569-59707653290a","state":"waiting","message_type":"publisher","message_action":"create","source_token":"1e2f84dc-ecda-4b62-bb8e-fb0536cc73b6","subj_id":"ZBW.ZEW","relation_type_id":"references","source_id":"datacite_datacentre","total":1,"occurred_at":"2016-10-03T19:45:14Z","timestamp":"2016-10-03T19:45:14Z","subj":{"name":"ZBW.ZEW","title":"Zentrum
        für Europäische Wirtschaftsforschung GmbH (ZEW)","registration_agency_id":"datacite","active":true},"obj":{}},{"id":"ec0b409b-1d94-4fac-bc71-4d34df83c50a","state":"waiting","message_type":"publisher","message_action":"create","source_token":"1e2f84dc-ecda-4b62-bb8e-fb0536cc73b6","subj_id":"ZBW.ZBW-JDA","relation_type_id":"references","source_id":"datacite_datacentre","total":1,"occurred_at":"2016-10-03T19:45:13Z","timestamp":"2016-10-03T19:45:13Z","subj":{"name":"ZBW.ZBW-JDA","title":"ZBW
        Journal Data Archive","registration_agency_id":"datacite","active":true},"obj":{}},{"id":"4c382dde-cdaf-46e1-867d-8ea6c7429ab9","state":"waiting","message_type":"publisher","message_action":"create","source_token":"1e2f84dc-ecda-4b62-bb8e-fb0536cc73b6","subj_id":"ZBW.SUBHH","relation_type_id":"references","source_id":"datacite_datacentre","total":1,"occurred_at":"2016-10-03T19:45:13Z","timestamp":"2016-10-03T19:45:13Z","subj":{"name":"ZBW.SUBHH","title":"Staats-
        und Universitätsbibliothek Hamburg Carl von Ossietzky","registration_agency_id":"datacite","active":true},"obj":{}},{"id":"ad90d6a4-7e9c-4a69-aa86-0b77a1a4fa2b","state":"waiting","message_type":"publisher","message_action":"create","source_token":"1e2f84dc-ecda-4b62-bb8e-fb0536cc73b6","subj_id":"ZBW.RWI","relation_type_id":"references","source_id":"datacite_datacentre","total":1,"occurred_at":"2016-10-03T19:45:13Z","timestamp":"2016-10-03T19:45:13Z","subj":{"name":"ZBW.RWI","title":"RWI
        - Rheinisch-Westfälisches Institut für Wirtschaftsforschung e.V.","registration_agency_id":"datacite","active":true},"obj":{}},{"id":"6e0f714e-cd3b-449e-b015-78a0df5625c6","state":"waiting","message_type":"publisher","message_action":"create","source_token":"1e2f84dc-ecda-4b62-bb8e-fb0536cc73b6","subj_id":"ZBW.PBR","relation_type_id":"references","source_id":"datacite_datacentre","total":1,"occurred_at":"2016-10-03T19:45:13Z","timestamp":"2016-10-03T19:45:13Z","subj":{"name":"ZBW.PBR","title":"e-Journal
        of Practical Business Research","registration_agency_id":"datacite","active":true},"obj":{}},{"id":"ad95dbc8-fad7-4e86-9dcc-150d9ad2fbf8","state":"waiting","message_type":"publisher","message_action":"create","source_token":"1e2f84dc-ecda-4b62-bb8e-fb0536cc73b6","subj_id":"ZBW.IOS","relation_type_id":"references","source_id":"datacite_datacentre","total":1,"occurred_at":"2016-10-03T19:45:13Z","timestamp":"2016-10-03T19:45:13Z","subj":{"name":"ZBW.IOS","title":"Institut
        für Ost- und Südosteuropaforschung","registration_agency_id":"datacite","active":true},"obj":{}},{"id":"f4ea8092-241b-4645-8bc8-811997f06565","state":"waiting","message_type":"publisher","message_action":"create","source_token":"1e2f84dc-ecda-4b62-bb8e-fb0536cc73b6","subj_id":"ZBW.IFO","relation_type_id":"references","source_id":"datacite_datacentre","total":1,"occurred_at":"2016-10-03T19:45:13Z","timestamp":"2016-10-03T19:45:13Z","subj":{"name":"ZBW.IFO","title":"LMU-ifo
        Economics & Business Data Center","registration_agency_id":"datacite","active":true},"obj":{}},{"id":"9fe742c8-8690-44c6-a47d-342d65eb74ff","state":"waiting","message_type":"publisher","message_action":"create","source_token":"1e2f84dc-ecda-4b62-bb8e-fb0536cc73b6","subj_id":"ZBW.FELU","relation_type_id":"references","source_id":"datacite_datacentre","total":1,"occurred_at":"2016-10-03T19:45:13Z","timestamp":"2016-10-03T19:45:13Z","subj":{"name":"ZBW.FELU","title":"Faculty
        of Economics University of Ljubljana","registration_agency_id":"datacite","active":true},"obj":{}},{"id":"16dbbe51-bb25-4f7f-a845-c3ab236103d3","state":"waiting","message_type":"publisher","message_action":"create","source_token":"1e2f84dc-ecda-4b62-bb8e-fb0536cc73b6","subj_id":"ZBW.AFM","relation_type_id":"references","source_id":"datacite_datacentre","total":1,"occurred_at":"2016-10-03T19:45:13Z","timestamp":"2016-10-03T19:45:13Z","subj":{"name":"ZBW.AFM","title":"Arbeitsgemeinschaft
        für Marketing","registration_agency_id":"datacite","active":true},"obj":{}},{"id":"30e488e5-7a28-4b46-abdc-2afb3297bf4c","state":"waiting","message_type":"publisher","message_action":"create","source_token":"1e2f84dc-ecda-4b62-bb8e-fb0536cc73b6","subj_id":"ZBMED.ZI","relation_type_id":"references","source_id":"datacite_datacentre","total":1,"occurred_at":"2016-10-03T19:45:13Z","timestamp":"2016-10-03T19:45:13Z","subj":{"name":"ZBMED.ZI","title":"Zentralinstitut
        für die kassenärztliche Versorgung in der Bundesrepublik Deutschland (Zi)","registration_agency_id":"datacite","active":true},"obj":{}},{"id":"a5259ba0-b5fc-496c-be3d-5ff8643cbe1e","state":"waiting","message_type":"publisher","message_action":"create","source_token":"1e2f84dc-ecda-4b62-bb8e-fb0536cc73b6","subj_id":"ZBMED.ZFPG","relation_type_id":"references","source_id":"datacite_datacentre","total":1,"occurred_at":"2016-10-03T19:45:13Z","timestamp":"2016-10-03T19:45:13Z","subj":{"name":"ZBMED.ZFPG","title":"Hochschule
        für angewandte Wissenschaften Neu-Ulm Fakultät Gesundheitsmanagement Wileystr.
        1 D-89231Neu-Ulm","registration_agency_id":"datacite","active":true},"obj":{}},{"id":"aed994a6-93f8-41c0-87e1-9e7a01871d9f","state":"waiting","message_type":"publisher","message_action":"create","source_token":"1e2f84dc-ecda-4b62-bb8e-fb0536cc73b6","subj_id":"ZBMED.VLSP","relation_type_id":"references","source_id":"datacite_datacentre","total":1,"occurred_at":"2016-10-03T19:45:13Z","timestamp":"2016-10-03T19:45:13Z","subj":{"name":"ZBMED.VLSP","title":"Verband
        von Lesben und Schwulen in der Psychologie c/o PLUS e.V. Alphornstr. 2a 68169
        Mannheim","registration_agency_id":"datacite","active":true},"obj":{}},{"id":"23f0d475-d31a-4e73-951c-f65b7388d498","state":"waiting","message_type":"publisher","message_action":"create","source_token":"1e2f84dc-ecda-4b62-bb8e-fb0536cc73b6","subj_id":"ZBMED.VJVRS","relation_type_id":"references","source_id":"datacite_datacentre","total":1,"occurred_at":"2016-10-03T19:45:13Z","timestamp":"2016-10-03T19:45:13Z","subj":{"name":"ZBMED.VJVRS","title":"Video
        Journal of Vitreoretinal Surgery","registration_agency_id":"datacite","active":true},"obj":{}},{"id":"dea76a5f-285e-45f6-a077-ca4f5ab6136e","state":"waiting","message_type":"publisher","message_action":"create","source_token":"1e2f84dc-ecda-4b62-bb8e-fb0536cc73b6","subj_id":"ZBMED.UNIKOELN","relation_type_id":"references","source_id":"datacite_datacentre","total":1,"occurred_at":"2016-10-03T19:45:13Z","timestamp":"2016-10-03T19:45:13Z","subj":{"name":"ZBMED.UNIKOELN","title":"Universitäts-
        und Stadtbibliothek Köln","registration_agency_id":"datacite","active":true},"obj":{}},{"id":"d7e3ef7f-3ef4-42dc-b1fe-4b1a93a7c291","state":"waiting","message_type":"publisher","message_action":"create","source_token":"1e2f84dc-ecda-4b62-bb8e-fb0536cc73b6","subj_id":"ZBMED.TABRIZ","relation_type_id":"references","source_id":"datacite_datacentre","total":1,"occurred_at":"2016-10-03T19:45:13Z","timestamp":"2016-10-03T19:45:13Z","subj":{"name":"ZBMED.TABRIZ","title":"Tabriz
        University of Medical Sciences","registration_agency_id":"datacite","active":true},"obj":{}},{"id":"f37c22be-73b3-45d1-9438-d0c8e93cbe43","state":"waiting","message_type":"publisher","message_action":"create","source_token":"1e2f84dc-ecda-4b62-bb8e-fb0536cc73b6","subj_id":"ZBMED.SFUWIEN","relation_type_id":"references","source_id":"datacite_datacentre","total":1,"occurred_at":"2016-10-03T19:45:13Z","timestamp":"2016-10-03T19:45:13Z","subj":{"name":"ZBMED.SFUWIEN","title":"Sigmund
        Freud PrivatUniversität Wien (SFU)","registration_agency_id":"datacite","active":true},"obj":{}},{"id":"6668a1d0-baa8-4d6b-8d8e-47fcc67b70bf","state":"waiting","message_type":"publisher","message_action":"create","source_token":"1e2f84dc-ecda-4b62-bb8e-fb0536cc73b6","subj_id":"ZBMED.PUBLISSO","relation_type_id":"references","source_id":"datacite_datacentre","total":1,"occurred_at":"2016-10-03T19:45:13Z","timestamp":"2016-10-03T19:45:13Z","subj":{"name":"ZBMED.PUBLISSO","title":"ZB
        MED PUBLISSO","registration_agency_id":"datacite","active":true},"obj":{}},{"id":"9b2fa0c0-41f9-48b9-9c27-8093bbdf52c3","state":"waiting","message_type":"publisher","message_action":"create","source_token":"1e2f84dc-ecda-4b62-bb8e-fb0536cc73b6","subj_id":"ZBMED.PSYMET","relation_type_id":"references","source_id":"datacite_datacentre","total":1,"occurred_at":"2016-10-03T19:45:13Z","timestamp":"2016-10-03T19:45:13Z","subj":{"name":"ZBMED.PSYMET","title":"Psychometrikon","registration_agency_id":"datacite","active":true},"obj":{}},{"id":"3f01af49-30f2-4410-a800-717590d48579","state":"waiting","message_type":"publisher","message_action":"create","source_token":"1e2f84dc-ecda-4b62-bb8e-fb0536cc73b6","subj_id":"ZBMED.PF","relation_type_id":"references","source_id":"datacite_datacentre","total":1,"occurred_at":"2016-10-03T19:45:13Z","timestamp":"2016-10-03T19:45:13Z","subj":{"name":"ZBMED.PF","title":"Universitätsbibliothek
        Regensburg","registration_agency_id":"datacite","active":true},"obj":{}},{"id":"b160b0f8-165f-4565-8dd5-0af35ab98940","state":"waiting","message_type":"publisher","message_action":"create","source_token":"1e2f84dc-ecda-4b62-bb8e-fb0536cc73b6","subj_id":"ZBMED.LERNZDB","relation_type_id":"references","source_id":"datacite_datacentre","total":1,"occurred_at":"2016-10-03T19:45:13Z","timestamp":"2016-10-03T19:45:13Z","subj":{"name":"ZBMED.LERNZDB","title":"Environmental
        Research Institute, Faculty of Science & Engineering, University of Waikato,
        New Zealand","registration_agency_id":"datacite","active":true},"obj":{}},{"id":"c54d2837-a26a-473a-98d0-5e6bd0322b8d","state":"waiting","message_type":"publisher","message_action":"create","source_token":"1e2f84dc-ecda-4b62-bb8e-fb0536cc73b6","subj_id":"ZBMED.KTBL","relation_type_id":"references","source_id":"datacite_datacentre","total":1,"occurred_at":"2016-10-03T19:45:13Z","timestamp":"2016-10-03T19:45:13Z","subj":{"name":"ZBMED.KTBL","title":"Kuratorium
        für Technik und Bauwesen in der Landwirtschaft e. V. (KTBL)","registration_agency_id":"datacite","active":true},"obj":{}},{"id":"e94daeaf-143c-4291-b19b-b25c0c278707","state":"waiting","message_type":"publisher","message_action":"create","source_token":"1e2f84dc-ecda-4b62-bb8e-fb0536cc73b6","subj_id":"ZBMED.JMUW","relation_type_id":"references","source_id":"datacite_datacentre","total":1,"occurred_at":"2016-10-03T19:45:13Z","timestamp":"2016-10-03T19:45:13Z","subj":{"name":"ZBMED.JMUW","title":"Universität
        Würzburg","registration_agency_id":"datacite","active":true},"obj":{}},{"id":"5100cd75-3ff2-4969-9058-1fc42d8f02a4","state":"waiting","message_type":"publisher","message_action":"create","source_token":"1e2f84dc-ecda-4b62-bb8e-fb0536cc73b6","subj_id":"ZBMED.IJSFD","relation_type_id":"references","source_id":"datacite_datacentre","total":1,"occurred_at":"2016-10-03T19:45:13Z","timestamp":"2016-10-03T19:45:13Z","subj":{"name":"ZBMED.IJSFD","title":"International
        Center for Food Chain and Network Research, Rheinische Friedrich Wilhelms-Universität
        Bonn","registration_agency_id":"datacite","active":true},"obj":{}},{"id":"0812d6b4-2e81-47d4-b932-a630899f163d","state":"waiting","message_type":"publisher","message_action":"create","source_token":"1e2f84dc-ecda-4b62-bb8e-fb0536cc73b6","subj_id":"ZBMED.IFADO","relation_type_id":"references","source_id":"datacite_datacentre","total":1,"occurred_at":"2016-10-03T19:45:13Z","timestamp":"2016-10-03T19:45:13Z","subj":{"name":"ZBMED.IFADO","title":"Leibniz-Institut
        für Arbeitsforschung an der TU Dortmund (IfADo)","registration_agency_id":"datacite","active":true},"obj":{}},{"id":"421101fd-f2bd-4465-81dc-5767eee2769a","state":"waiting","message_type":"publisher","message_action":"create","source_token":"1e2f84dc-ecda-4b62-bb8e-fb0536cc73b6","subj_id":"ZBMED.IBJ","relation_type_id":"references","source_id":"datacite_datacentre","total":1,"occurred_at":"2016-10-03T19:45:13Z","timestamp":"2016-10-03T19:45:13Z","subj":{"name":"ZBMED.IBJ","title":"Iranian
        Biomedical Journal","registration_agency_id":"datacite","active":true},"obj":{}},{"id":"e99ea820-903f-48fe-9cef-7a3a9b4fcb9a","state":"waiting","message_type":"publisher","message_action":"create","source_token":"1e2f84dc-ecda-4b62-bb8e-fb0536cc73b6","subj_id":"ZBMED.HORTIGAT","relation_type_id":"references","source_id":"datacite_datacentre","total":1,"occurred_at":"2016-10-03T19:45:13Z","timestamp":"2016-10-03T19:45:13Z","subj":{"name":"ZBMED.HORTIGAT","title":"Gartenbau-Informationssystem
        hortigate Ein Angebot des Zentralverbandes Gartenbau e.V. (ZVG)","registration_agency_id":"datacite","active":true},"obj":{}},{"id":"229b416e-a151-4308-93d9-7de6cb8c899f","state":"waiting","message_type":"publisher","message_action":"create","source_token":"1e2f84dc-ecda-4b62-bb8e-fb0536cc73b6","subj_id":"ZBMED.HITS","relation_type_id":"references","source_id":"datacite_datacentre","total":1,"occurred_at":"2016-10-03T19:45:13Z","timestamp":"2016-10-03T19:45:13Z","subj":{"name":"ZBMED.HITS","title":"HITS
        gGmbH,Heidelberger Institut für Theoretische Studien","registration_agency_id":"datacite","active":true},"obj":{}},{"id":"8386876a-20eb-476d-a14f-2665092fd2bf","state":"waiting","message_type":"publisher","message_action":"create","source_token":"1e2f84dc-ecda-4b62-bb8e-fb0536cc73b6","subj_id":"ZBMED.GMS","relation_type_id":"references","source_id":"datacite_datacentre","total":1,"occurred_at":"2016-10-03T19:45:13Z","timestamp":"2016-10-03T19:45:13Z","subj":{"name":"ZBMED.GMS","title":"German
        Medical Science","registration_agency_id":"datacite","active":true},"obj":{}},{"id":"9b6fb4ab-5da8-4aac-89c6-f59e5bfa9272","state":"waiting","message_type":"publisher","message_action":"create","source_token":"1e2f84dc-ecda-4b62-bb8e-fb0536cc73b6","subj_id":"ZBMED.GIQS","relation_type_id":"references","source_id":"datacite_datacentre","total":1,"occurred_at":"2016-10-03T19:45:13Z","timestamp":"2016-10-03T19:45:13Z","subj":{"name":"ZBMED.GIQS","title":"GIQS
        (Grenzüberschreitende Integrierte Qualitätssicherung e.V.)","registration_agency_id":"datacite","active":true},"obj":{}},{"id":"6ca0f2b8-4831-416d-84b9-95323b250ab3","state":"waiting","message_type":"publisher","message_action":"create","source_token":"1e2f84dc-ecda-4b62-bb8e-fb0536cc73b6","subj_id":"ZBMED.FORGES","relation_type_id":"references","source_id":"datacite_datacentre","total":1,"occurred_at":"2016-10-03T19:45:13Z","timestamp":"2016-10-03T19:45:13Z","subj":{"name":"ZBMED.FORGES","title":"Forschungsstelle
        für Gesundheitsbildung, Köln","registration_agency_id":"datacite","active":true},"obj":{}},{"id":"fd25e28e-39bd-40b0-b254-f311c0ab0cbc","state":"waiting","message_type":"publisher","message_action":"create","source_token":"1e2f84dc-ecda-4b62-bb8e-fb0536cc73b6","subj_id":"ZBMED.FLORSOZ","relation_type_id":"references","source_id":"datacite_datacentre","total":1,"occurred_at":"2016-10-03T19:45:13Z","timestamp":"2016-10-03T19:45:13Z","subj":{"name":"ZBMED.FLORSOZ","title":"Floristisch-soziologische
        Arbeitsgemeinschaft e.V. (FlorSoz)","registration_agency_id":"datacite","active":true},"obj":{}},{"id":"d12bbf1c-680b-40eb-ba9b-93ce7a234b22","state":"waiting","message_type":"publisher","message_action":"create","source_token":"1e2f84dc-ecda-4b62-bb8e-fb0536cc73b6","subj_id":"ZBMED.FBN","relation_type_id":"references","source_id":"datacite_datacentre","total":1,"occurred_at":"2016-10-03T19:45:13Z","timestamp":"2016-10-03T19:45:13Z","subj":{"name":"ZBMED.FBN","title":"Leibniz-Institut
        für Nutztierbiologie (FBN)","registration_agency_id":"datacite","active":true},"obj":{}},{"id":"fbfc7179-561f-414e-8b01-6ff8b257bb9d","state":"waiting","message_type":"publisher","message_action":"create","source_token":"1e2f84dc-ecda-4b62-bb8e-fb0536cc73b6","subj_id":"ZBMED.EMP","relation_type_id":"references","source_id":"datacite_datacentre","total":1,"occurred_at":"2016-10-03T19:45:13Z","timestamp":"2016-10-03T19:45:13Z","subj":{"name":"ZBMED.EMP","title":"eyeMoviePedia","registration_agency_id":"datacite","active":true},"obj":{}},{"id":"ba4fb12b-18a4-413b-a307-7cd706d3f56b","state":"waiting","message_type":"publisher","message_action":"create","source_token":"1e2f84dc-ecda-4b62-bb8e-fb0536cc73b6","subj_id":"ZBMED.ELLINET","relation_type_id":"references","source_id":"datacite_datacentre","total":1,"occurred_at":"2016-10-03T19:45:13Z","timestamp":"2016-10-03T19:45:13Z","subj":{"name":"ZBMED.ELLINET","title":"ElliNET","registration_agency_id":"datacite","active":true},"obj":{}},{"id":"93bed096-11f4-4358-8975-cc3f8f2cfe09","state":"waiting","message_type":"publisher","message_action":"create","source_token":"1e2f84dc-ecda-4b62-bb8e-fb0536cc73b6","subj_id":"ZBMED.EBOOKALT","relation_type_id":"references","source_id":"datacite_datacentre","total":1,"occurred_at":"2016-10-03T19:45:13Z","timestamp":"2016-10-03T19:45:13Z","subj":{"name":"ZBMED.EBOOKALT","title":"TU
        Braunschweig, Institut für Psychologie, Abt. Gerontopsychologie","registration_agency_id":"datacite","active":true},"obj":{}},{"id":"09a41d09-2853-4147-9ea1-4d0f9ef2ae89","state":"waiting","message_type":"publisher","message_action":"create","source_token":"1e2f84dc-ecda-4b62-bb8e-fb0536cc73b6","subj_id":"ZBMED.EAACI","relation_type_id":"references","source_id":"datacite_datacentre","total":1,"occurred_at":"2016-10-03T19:45:13Z","timestamp":"2016-10-03T19:45:13Z","subj":{"name":"ZBMED.EAACI","title":"European
        Academy for Allergology and Clinical Immunology","registration_agency_id":"datacite","active":true},"obj":{}},{"id":"9673c0ff-274f-4462-8383-acb76442d7ff","state":"waiting","message_type":"publisher","message_action":"create","source_token":"1e2f84dc-ecda-4b62-bb8e-fb0536cc73b6","subj_id":"ZBMED.DIAGNOMX","relation_type_id":"references","source_id":"datacite_datacentre","total":1,"occurred_at":"2016-10-03T19:45:13Z","timestamp":"2016-10-03T19:45:13Z","subj":{"name":"ZBMED.DIAGNOMX","title":"DiagnomX
        GmbH","registration_agency_id":"datacite","active":true},"obj":{}},{"id":"913a1481-4ad5-4500-8489-4ac193355929","state":"waiting","message_type":"publisher","message_action":"create","source_token":"1e2f84dc-ecda-4b62-bb8e-fb0536cc73b6","subj_id":"ZBMED.DHL","relation_type_id":"references","source_id":"datacite_datacentre","total":1,"occurred_at":"2016-10-03T19:45:13Z","timestamp":"2016-10-03T19:45:13Z","subj":{"name":"ZBMED.DHL","title":"Deutsche
        Hochdruckliga e.V.","registration_agency_id":"datacite","active":true},"obj":{}},{"id":"1ba096e0-6702-4fc8-91b3-356bfb43aacf","state":"waiting","message_type":"publisher","message_action":"create","source_token":"1e2f84dc-ecda-4b62-bb8e-fb0536cc73b6","subj_id":"ZBMED.BLE","relation_type_id":"references","source_id":"datacite_datacentre","total":1,"occurred_at":"2016-10-03T19:45:13Z","timestamp":"2016-10-03T19:45:13Z","subj":{"name":"ZBMED.BLE","title":"Bundesanstalt
        für Landwirtschaft und Ernährung","registration_agency_id":"datacite","active":true},"obj":{}},{"id":"529c14ce-c3f5-468e-8372-0415813d442d","state":"waiting","message_type":"publisher","message_action":"create","source_token":"1e2f84dc-ecda-4b62-bb8e-fb0536cc73b6","subj_id":"ZBMED.BIOFRESH","relation_type_id":"references","source_id":"datacite_datacentre","total":1,"occurred_at":"2016-10-03T19:45:13Z","timestamp":"2016-10-03T19:45:13Z","subj":{"name":"ZBMED.BIOFRESH","title":"Project
        BioFresh, Leibniz-Institute of Freshwater Ecology and Inland Fisheries","registration_agency_id":"datacite","active":true},"obj":{}},{"id":"349ea1f2-153c-4049-9b3d-18b7834aa757","state":"waiting","message_type":"publisher","message_action":"create","source_token":"1e2f84dc-ecda-4b62-bb8e-fb0536cc73b6","subj_id":"ZBMED.BFS","relation_type_id":"references","source_id":"datacite_datacentre","total":1,"occurred_at":"2016-10-03T19:45:13Z","timestamp":"2016-10-03T19:45:13Z","subj":{"name":"ZBMED.BFS","title":"Bundesamt
        für Strahlenschutz","registration_agency_id":"datacite","active":true},"obj":{}},{"id":"8fb6d68f-65cf-4ed4-a4fc-6ab114d5508f","state":"waiting","message_type":"publisher","message_action":"create","source_token":"1e2f84dc-ecda-4b62-bb8e-fb0536cc73b6","subj_id":"ZBMED.ANET","relation_type_id":"references","source_id":"datacite_datacentre","total":1,"occurred_at":"2016-10-03T19:45:12Z","timestamp":"2016-10-03T19:45:12Z","subj":{"name":"ZBMED.ANET","title":"ANeT
        (Network for the study of Asian Ants)","registration_agency_id":"datacite","active":true},"obj":{}},{"id":"3a4293c8-3c0d-4e04-b4d4-9fcc5184eb1d","state":"waiting","message_type":"publisher","message_action":"create","source_token":"1e2f84dc-ecda-4b62-bb8e-fb0536cc73b6","subj_id":"ZBMED.AEZQ","relation_type_id":"references","source_id":"datacite_datacentre","total":1,"occurred_at":"2016-10-03T19:45:12Z","timestamp":"2016-10-03T19:45:12Z","subj":{"name":"ZBMED.AEZQ","title":"Ärztliches
        Zentrum für Qualität in der Medizin","registration_agency_id":"datacite","active":true},"obj":{}},{"id":"aa1b4533-43ca-4f28-880d-b9bcf61e4ea1","state":"waiting","message_type":"publisher","message_action":"create","source_token":"1e2f84dc-ecda-4b62-bb8e-fb0536cc73b6","subj_id":"TIB.ZIB","relation_type_id":"references","source_id":"datacite_datacentre","total":1,"occurred_at":"2016-10-03T19:45:12Z","timestamp":"2016-10-03T19:45:12Z","subj":{"name":"TIB.ZIB","title":"Konrad-Zuse-Zentrum
        Berlin","registration_agency_id":"datacite","active":true},"obj":{}},{"id":"9c70ae7e-dc46-4d89-9ef6-26d3f7df7de3","state":"waiting","message_type":"publisher","message_action":"create","source_token":"1e2f84dc-ecda-4b62-bb8e-fb0536cc73b6","subj_id":"TIB.ZALF","relation_type_id":"references","source_id":"datacite_datacentre","total":1,"occurred_at":"2016-10-03T19:45:12Z","timestamp":"2016-10-03T19:45:12Z","subj":{"name":"TIB.ZALF","title":"Leibniz-Zentrum
        für Agrarlandschaftsforschung (ZALF) e. V.","registration_agency_id":"datacite","active":true},"obj":{}},{"id":"fd16bffe-8c45-425d-ae40-5a21b5d54507","state":"waiting","message_type":"publisher","message_action":"create","source_token":"1e2f84dc-ecda-4b62-bb8e-fb0536cc73b6","subj_id":"TIB.WIP","relation_type_id":"references","source_id":"datacite_datacentre","total":1,"occurred_at":"2016-10-03T19:45:12Z","timestamp":"2016-10-03T19:45:12Z","subj":{"name":"TIB.WIP","title":"WIP
        - Renewable Energies","registration_agency_id":"datacite","active":true},"obj":{}},{"id":"23e7fea7-9591-446e-91f5-4df49f86ad63","state":"waiting","message_type":"publisher","message_action":"create","source_token":"1e2f84dc-ecda-4b62-bb8e-fb0536cc73b6","subj_id":"TIB.WIAS","relation_type_id":"references","source_id":"datacite_datacentre","total":1,"occurred_at":"2016-10-03T19:45:12Z","timestamp":"2016-10-03T19:45:12Z","subj":{"name":"TIB.WIAS","title":"Weierstraß-Institut
        für Angewandte Analysis und Stochastik","registration_agency_id":"datacite","active":true},"obj":{}},{"id":"d0daa79c-d912-4f3d-941b-523730e6c025","state":"waiting","message_type":"publisher","message_action":"create","source_token":"1e2f84dc-ecda-4b62-bb8e-fb0536cc73b6","subj_id":"TIB.WDCRSAT","relation_type_id":"references","source_id":"datacite_datacentre","total":1,"occurred_at":"2016-10-03T19:45:12Z","timestamp":"2016-10-03T19:45:12Z","subj":{"name":"TIB.WDCRSAT","title":"World
        Data Center for Remote Sensing of the Atmosphere","registration_agency_id":"datacite","active":true},"obj":{}},{"id":"9986b811-f155-487c-8f51-aeb57aee27b2","state":"waiting","message_type":"publisher","message_action":"create","source_token":"1e2f84dc-ecda-4b62-bb8e-fb0536cc73b6","subj_id":"TIB.WDCC","relation_type_id":"references","source_id":"datacite_datacentre","total":1,"occurred_at":"2016-10-03T19:45:12Z","timestamp":"2016-10-03T19:45:12Z","subj":{"name":"TIB.WDCC","title":"World
        Data Center for Climate","registration_agency_id":"datacite","active":true},"obj":{}}]}'
    http_version: 
  recorded_at: Tue, 04 Oct 2016 21:44:21 GMT
recorded_with: VCR 2.9.3
