---
http_interactions:
- request:
    method: get
    uri: http://eventdata.labs.datacite.org/api/publishers?page=1&per_page=25
    body:
      encoding: US-ASCII
      string: ''
    headers:
      User-Agent:
      - Maremma - http://api.local
      Accept:
      - text/html,application/json,application/xml;q=0.9, text/plain;q=0.8,image/png,*/*;q=0.5
  response:
    status:
      code: 200
      message: ''
    headers:
      Server:
      - nginx/1.11.5
      Date:
      - Fri, 21 Oct 2016 17:27:19 GMT
      Content-Type:
      - application/json; charset=utf-8
      Connection:
      - keep-alive
      Status:
      - 200 OK
      Cache-Control:
      - max-age=0, private, must-revalidate
      Access-Control-Allow-Origin:
      - "*"
      Vary:
      - Accept-Encoding
      Access-Control-Max-Age:
      - '1728000'
      X-Xss-Protection:
      - 1; mode=block
      X-Request-Id:
      - 7ed2f0c3-8ab3-40fc-8a19-65345f68a7a0
      Access-Control-Allow-Headers:
      - Origin, Content-Type, Accept, Authorization, Token
      Access-Control-Allow-Methods:
      - GET, POST, OPTIONS
      Etag:
      - W/"bd5545e0bffd3e7fe766910b9044618f"
      X-Frame-Options:
      - SAMEORIGIN
      X-Runtime:
      - '0.063065'
      X-Content-Type-Options:
      - nosniff
      X-Powered-By:
      - Phusion Passenger 5.0.30
    body:
      encoding: UTF-8
      string: '{"meta":{"status":"ok","message-type":"publisher-list","message-version":"v7","total":7971,"total_pages":319,"page":1,"registration_agencies":[{"id":"datacite","title":"DataCite","count":807},{"id":"crossref","title":"Crossref","count":7164}],"members":[{"id":"delft","title":"DELFT","count":14},{"id":"dk","title":"DK","count":9},{"id":"mtakik","title":"MTAKIK","count":38},{"id":"purdue","title":"PURDUE","count":28},{"id":"cdl","title":"CDL","count":180},{"id":"osti","title":"OSTI","count":27},{"id":"ethz","title":"ETHZ","count":46},{"id":"gesis","title":"GESIS","count":67},{"id":"cisti","title":"CISTI","count":24},{"id":"zbmed","title":"ZBMED","count":34},{"id":"inist","title":"INIST","count":34},{"id":"snd","title":"SND","count":7},{"id":"cern","title":"CERN","count":7},{"id":"crui","title":"CRUI","count":35},{"id":"datacite","title":"DATACITE","count":2},{"id":"csic","title":"CSIC","count":1},{"id":"spbpu","title":"SPBPU","count":2},{"id":"zbw","title":"ZBW","count":10},{"id":"figshare","title":"FIGSHARE","count":1},{"id":"ands","title":"ANDS","count":44},{"id":"jalc","title":"JALC","count":1},{"id":"nrct","title":"NRCT","count":1},{"id":"tib","title":"TIB","count":116},{"id":"nrf","title":"NRF","count":1},{"id":"subgoe","title":"SUBGOE","count":4},{"id":"estdoi","title":"ESTDOI","count":6},{"id":"bibsys","title":"BIBSYS","count":2},{"id":"bl","title":"BL","count":66}]},"publishers":[{"id":"ETHZ.UBASOJS","title":"027.7
        - Zeitschrift für Bibliothekskultur","prefixes":[],"registration_agency_id":"datacite","member_id":"ETHZ","timestamp":"2016-10-21T17:10:21Z"},{"id":"4396","title":"123Doc
        Education","other_names":["123Doc Education"],"prefixes":["10.7579"],"registration_agency_id":"crossref","timestamp":"2016-10-21T17:13:11Z"},{"id":"2034","title":"21st
        Century COE Program","other_names":["21st Century COE Program (Toplogical
        Science and Technology)","21st Century COE Program"],"prefixes":["10.3731"],"registration_agency_id":"crossref","timestamp":"2016-10-21T17:13:09Z"},{"id":"7298","title":"21st
        Century Political Science Association","other_names":["21st Century Political
        Science Association"],"prefixes":["10.17937"],"registration_agency_id":"crossref","timestamp":"2016-10-21T17:13:12Z"},{"id":"DELFT.DATACENT","title":"3TU
        Datacentrum","prefixes":[],"registration_agency_id":"datacite","member_id":"DELFT","timestamp":"2016-10-21T17:13:13Z"},{"id":"9570","title":"4S
        go, s.r.o.","other_names":["4S go, s.r.o."],"prefixes":["10.22306"],"registration_agency_id":"crossref","timestamp":"2016-10-21T17:13:14Z"},{"id":"DELFT.DATA4TU","title":"4TU.Centre
        for Research Data","prefixes":[],"registration_agency_id":"datacite","member_id":"DELFT","timestamp":"2016-10-21T17:13:14Z"},{"id":"6412","title":"A
        Fundacao para o Desenvolvimento de Bauru (FunDeB)","other_names":["A Fundacao
        para o Desenvolvimento de Bauru (FunDeB)"],"prefixes":["10.15675"],"registration_agency_id":"crossref","timestamp":"2016-10-21T17:10:22Z"},{"id":"3776","title":"A.
        I. Rosu Cultural Scientific Foundation (Fundatia cultural-stiintifica A. I.
        Rosu)","other_names":["A. I. Rosu Cultural Scientific Foundation (Fundatia
        cultural-stiintifica A. I. Rosu)","A. I. Rosu Cultural Scientific Foundation
        Fundatia cultural-stiintifica A. I. Rosu"],"prefixes":["10.5775"],"registration_agency_id":"crossref","timestamp":"2016-10-21T17:10:22Z"},{"id":"9115","title":"AABRM","other_names":["AABRM"],"prefixes":["10.21658"],"registration_agency_id":"crossref","timestamp":"2016-10-21T17:13:16Z"},{"id":"2653","title":"AACE
        Corp (American Association of Clinical Endocrinologists)","other_names":["AACE
        Corp (American Association of Clinical Endocrinologists)","American Association
        of Clinical Endocrinologists"],"prefixes":["10.4158"],"registration_agency_id":"crossref","timestamp":"2016-10-21T17:13:16Z"},{"id":"2471","title":"AACN
        Publishing","other_names":["AACN Publishing"],"prefixes":["10.4037"],"registration_agency_id":"crossref","timestamp":"2016-10-21T17:10:22Z"},{"id":"DK.AAU","title":"Aalborg
        University Library","prefixes":[],"registration_agency_id":"datacite","member_id":"DK","timestamp":"2016-10-21T17:10:22Z"},{"id":"4226","title":"Aarhus
        University Library","other_names":["Aarhus University Library"],"prefixes":["10.7146"],"registration_agency_id":"crossref","timestamp":"2016-10-21T17:10:22Z"},{"id":"9396","title":"Abanico
        Veterinario","other_names":["Abanico Veterinario"],"prefixes":["10.21929"],"registration_agency_id":"crossref","timestamp":"2016-10-21T17:10:22Z"},{"id":"6864","title":"Abant
        Izzet Baysal Universitesi Egitim Fakultesi Dergisi","other_names":["Abant
        Izzet Baysal Universitesi Egitim Fakultesi Dergisi"],"prefixes":["10.17240"],"registration_agency_id":"crossref","timestamp":"2016-10-21T17:10:23Z"},{"id":"4886","title":"Abant
        Izzet Baysal University Graduate School of Social Sciences","other_names":["Abant
        Izzet Baysal University Graduate School of Social Sciences"],"prefixes":["10.11616"],"registration_agency_id":"crossref","timestamp":"2016-10-21T17:10:23Z"},{"id":"7394","title":"ABC
        Journals","other_names":["ABC Journals"],"prefixes":["10.18034"],"registration_agency_id":"crossref","timestamp":"2016-10-21T17:10:23Z"},{"id":"5938","title":"ABCD
        Diabetes Care, Ltd.","other_names":["ABCD Diabetes Care, LTD.","ABCD Diabetes
        Care, Ltd."],"prefixes":["10.15277"],"registration_agency_id":"crossref","timestamp":"2016-10-21T17:10:23Z"},{"id":"3766","title":"ABEAT
        - Associacao Brasileira de Especialistas em Alta Tecnologia","other_names":["ABEAT
        - Associacao Brasileira de Especialistas em Alta Tecnologia"],"prefixes":["10.5769"],"registration_agency_id":"crossref","timestamp":"2016-10-21T17:10:23Z"},{"id":"8875","title":"ABEC
        Publicacoes","other_names":["ABEC Publicacoes"],"prefixes":["10.21452"],"registration_agency_id":"crossref","timestamp":"2016-10-21T17:10:23Z"},{"id":"6706","title":"ABED
        - Associacao Brasileira de Educacao a Distancia","other_names":["ABED - Associacao
        Brasileira de Educacao a Distancia"],"prefixes":["10.17143"],"registration_agency_id":"crossref","timestamp":"2016-10-21T17:10:23Z"},{"id":"3637","title":"Aboriginal
        Policy Studies","other_names":["Aboriginal Policy Studies"],"prefixes":["10.5663"],"registration_agency_id":"crossref","timestamp":"2016-10-21T17:10:24Z"},{"id":"6983","title":"ABRACICON:
        Academia Brasileira de Ciencias Contabeis","other_names":["ABRACICON: Academia
        Brasileira de Ciencias Contabeis"],"prefixes":["10.17524"],"registration_agency_id":"crossref","timestamp":"2016-10-21T17:10:24Z"},{"id":"9344","title":"Abril
        NEPA UFF","other_names":["Abril NEPA UFF"],"prefixes":["10.21881"],"registration_agency_id":"crossref","timestamp":"2016-10-21T17:06:09Z"}]}'
    http_version: 
  recorded_at: Fri, 21 Oct 2016 17:27:19 GMT
recorded_with: VCR 2.9.3
