---
http_interactions:
- request:
    method: get
    uri: https://app.test.datacite.org/clients?include=provider&query=california
    body:
      encoding: US-ASCII
      string: ''
    headers:
      User-Agent:
      - Mozilla/5.0 (compatible; Maremma/4.1.1; +https://github.com/datacite/maremma)
      Accept:
      - text/html,application/json,application/xml;q=0.9, text/plain;q=0.8,image/png,*/*;q=0.5
  response:
    status:
      code: 200
      message: OK
    headers:
      Date:
      - Fri, 21 Sep 2018 06:42:54 GMT
      Content-Type:
      - application/json; charset=utf-8
      Connection:
      - keep-alive
      Status:
      - 200 OK
      X-Anonymous-Consumer:
      - 'true'
      Cache-Control:
      - max-age=0, private, must-revalidate
      Vary:
      - Accept-Encoding, Origin
      X-Request-Id:
      - 3c3b0caa-4eeb-4da8-af85-4a9d916fa560
      Etag:
      - W/"073a027a9038c27b9736fa516d303c71"
      X-Runtime:
      - '0.034971'
      X-Powered-By:
      - Phusion Passenger 5.3.4
      Server:
      - nginx/1.14.0 + Phusion Passenger 5.3.4
    body:
      encoding: ASCII-8BIT
      string: '{"data":[{"id":"cdl.ucsdcca","type":"clients","attributes":{"name":"California
        Coastal Atlas","symbol":"CDL.UCSDCCA","year":2012,"contact-name":"EZID Support
        Desk","contact-email":"ezid@ucop.edu","domains":"*","url":null,"created":"2012-06-27T20:51:59.000Z","updated":"2018-08-26T01:30:31.000Z","is-active":true,"has-password":true},"relationships":{"provider":{"data":{"id":"cdl","type":"providers"}},"prefixes":{"data":[{"id":"10.5072","type":"prefixes"},{"id":"10.4246","type":"prefixes"}]}}},{"id":"tind.cal","type":"clients","attributes":{"name":"California
        Institute of Technology","symbol":"TIND.CAL","year":2016,"contact-name":"tech@tind.io","contact-email":"tech@tind.io","domains":"tind.io","url":null,"created":"2016-10-25T15:16:46.000Z","updated":"2018-08-26T01:31:02.000Z","is-active":true,"has-password":true},"relationships":{"provider":{"data":{"id":"tind","type":"providers"}},"prefixes":{"data":[{"id":"10.5072","type":"prefixes"},{"id":"10.22002","type":"prefixes"}]}}},{"id":"cdl.caltech","type":"clients","attributes":{"name":"California
        Institute of Technology (Caltech)","symbol":"CDL.CALTECH","year":2013,"contact-name":"EZID
        Support Desk","contact-email":"ezid@ucop.edu","domains":"*","url":null,"created":"2013-04-16T16:10:03.000Z","updated":"2018-08-26T01:30:35.000Z","is-active":true,"has-password":false},"relationships":{"provider":{"data":{"id":"cdl","type":"providers"}},"prefixes":{"data":[{"id":"10.5072","type":"prefixes"},{"id":"10.7907","type":"prefixes"}]}}},{"id":"cdl.ucnrs","type":"clients","attributes":{"name":"University
        of California Natural Reserve System","symbol":"CDL.UCNRS","year":2016,"contact-name":"EZID
        Support Desk","contact-email":"ezid@ucop.edu","domains":"*","url":null,"created":"2016-11-15T20:41:13.000Z","updated":"2018-08-26T01:31:03.000Z","is-active":true,"has-password":false},"relationships":{"provider":{"data":{"id":"cdl","type":"providers"}},"prefixes":{"data":[{"id":"10.5072","type":"prefixes"},{"id":"10.21973","type":"prefixes"}]}}},{"id":"cdl.ucdavis","type":"clients","attributes":{"name":"University
        of California, Davis, University Library","symbol":"CDL.UCDAVIS","year":2014,"contact-name":"EZID
        Support Desk","contact-email":"ezid@ucop.edu","domains":"*","url":null,"created":"2014-09-24T14:54:20.000Z","updated":"2018-08-26T01:30:42.000Z","is-active":true,"has-password":false},"relationships":{"provider":{"data":{"id":"cdl","type":"providers"}},"prefixes":{"data":[{"id":"10.5072","type":"prefixes"},{"id":"10.15140","type":"prefixes"}]}}}],"included":[{"id":"cdl","type":"providers","attributes":{"name":"California
        Digital Library","symbol":"CDL","website":null,"contact-name":"Greg Janee","contact-email":"gjanee@ucop.edu","phone":null,"description":null,"region":null,"country":null,"logo-url":null,"institution-type":null,"is-active":true,"has-password":true,"joined":null,"created":"2010-01-01T00:00:00.000Z","updated":"2018-08-26T01:25:40.000Z"},"relationships":{"prefixes":{"data":[{"id":"10.5060","type":"prefixes"},{"id":"10.5061","type":"prefixes"},{"id":"10.5062","type":"prefixes"},{"id":"10.5063","type":"prefixes"},{"id":"10.5064","type":"prefixes"},{"id":"10.5065","type":"prefixes"},{"id":"10.5066","type":"prefixes"},{"id":"10.5067","type":"prefixes"},{"id":"10.5068","type":"prefixes"},{"id":"10.5069","type":"prefixes"},{"id":"10.5070","type":"prefixes"},{"id":"10.5072","type":"prefixes"},{"id":"10.6067","type":"prefixes"},{"id":"10.6068","type":"prefixes"},{"id":"10.6069","type":"prefixes"},{"id":"10.6070","type":"prefixes"},{"id":"10.6071","type":"prefixes"},{"id":"10.6072","type":"prefixes"},{"id":"10.6073","type":"prefixes"},{"id":"10.6074","type":"prefixes"},{"id":"10.6075","type":"prefixes"},{"id":"10.6076","type":"prefixes"},{"id":"10.6077","type":"prefixes"},{"id":"10.6078","type":"prefixes"},{"id":"10.6079","type":"prefixes"},{"id":"10.6080","type":"prefixes"},{"id":"10.6081","type":"prefixes"},{"id":"10.6082","type":"prefixes"},{"id":"10.6083","type":"prefixes"},{"id":"10.6084","type":"prefixes"},{"id":"10.6085","type":"prefixes"},{"id":"10.6086","type":"prefixes"},{"id":"10.3334","type":"prefixes"},{"id":"10.7264","type":"prefixes"},{"id":"10.7265","type":"prefixes"},{"id":"10.7266","type":"prefixes"},{"id":"10.7267","type":"prefixes"},{"id":"10.7268","type":"prefixes"},{"id":"10.7269","type":"prefixes"},{"id":"10.7270","type":"prefixes"},{"id":"10.7271","type":"prefixes"},{"id":"10.7272","type":"prefixes"},{"id":"10.7273","type":"prefixes"},{"id":"10.7274","type":"prefixes"},{"id":"10.7275","type":"prefixes"},{"id":"10.7276","type":"prefixes"},{"id":"10.7277","type":"prefixes"},{"id":"10.7278","type":"prefixes"},{"id":"10.7279","type":"prefixes"},{"id":"10.7280","type":"prefixes"},{"id":"10.7281","type":"prefixes"},{"id":"10.7282","type":"prefixes"},{"id":"10.7283","type":"prefixes"},{"id":"10.7284","type":"prefixes"},{"id":"10.7285","type":"prefixes"},{"id":"10.7286","type":"prefixes"},{"id":"10.7287","type":"prefixes"},{"id":"10.7288","type":"prefixes"},{"id":"10.7289","type":"prefixes"},{"id":"10.7290","type":"prefixes"},{"id":"10.7291","type":"prefixes"},{"id":"10.7292","type":"prefixes"},{"id":"10.7293","type":"prefixes"},{"id":"10.7294","type":"prefixes"},{"id":"10.7295","type":"prefixes"},{"id":"10.7296","type":"prefixes"},{"id":"10.7297","type":"prefixes"},{"id":"10.7298","type":"prefixes"},{"id":"10.7299","type":"prefixes"},{"id":"10.7300","type":"prefixes"},{"id":"10.7301","type":"prefixes"},{"id":"10.7302","type":"prefixes"},{"id":"10.7303","type":"prefixes"},{"id":"10.4246","type":"prefixes"},{"id":"10.7907","type":"prefixes"},{"id":"10.7908","type":"prefixes"},{"id":"10.7909","type":"prefixes"},{"id":"10.7910","type":"prefixes"},{"id":"10.7911","type":"prefixes"},{"id":"10.7912","type":"prefixes"},{"id":"10.7913","type":"prefixes"},{"id":"10.7914","type":"prefixes"},{"id":"10.7915","type":"prefixes"},{"id":"10.7916","type":"prefixes"},{"id":"10.7917","type":"prefixes"},{"id":"10.7918","type":"prefixes"},{"id":"10.7919","type":"prefixes"},{"id":"10.7920","type":"prefixes"},{"id":"10.7921","type":"prefixes"},{"id":"10.7922","type":"prefixes"},{"id":"10.7923","type":"prefixes"},{"id":"10.7924","type":"prefixes"},{"id":"10.7925","type":"prefixes"},{"id":"10.7926","type":"prefixes"},{"id":"10.7927","type":"prefixes"},{"id":"10.7928","type":"prefixes"},{"id":"10.7929","type":"prefixes"},{"id":"10.7930","type":"prefixes"},{"id":"10.7931","type":"prefixes"},{"id":"10.7932","type":"prefixes"},{"id":"10.7933","type":"prefixes"},{"id":"10.7934","type":"prefixes"},{"id":"10.7935","type":"prefixes"},{"id":"10.7936","type":"prefixes"},{"id":"10.7937","type":"prefixes"},{"id":"10.7938","type":"prefixes"},{"id":"10.7939","type":"prefixes"},{"id":"10.7940","type":"prefixes"},{"id":"10.7941","type":"prefixes"},{"id":"10.7942","type":"prefixes"},{"id":"10.7943","type":"prefixes"},{"id":"10.7944","type":"prefixes"},{"id":"10.7945","type":"prefixes"},{"id":"10.7946","type":"prefixes"},{"id":"10.13022","type":"prefixes"},{"id":"10.13021","type":"prefixes"},{"id":"10.13026","type":"prefixes"},{"id":"10.13025","type":"prefixes"},{"id":"10.13024","type":"prefixes"},{"id":"10.13023","type":"prefixes"},{"id":"10.13028","type":"prefixes"},{"id":"10.13027","type":"prefixes"},{"id":"10.13018","type":"prefixes"},{"id":"10.15147","type":"prefixes"},{"id":"10.15146","type":"prefixes"},{"id":"10.15142","type":"prefixes"},{"id":"10.15143","type":"prefixes"},{"id":"10.15144","type":"prefixes"},{"id":"10.15145","type":"prefixes"},{"id":"10.15140","type":"prefixes"},{"id":"10.15141","type":"prefixes"},{"id":"10.15139","type":"prefixes"},{"id":"10.15138","type":"prefixes"},{"id":"10.1184","type":"prefixes"},{"id":"10.15788","type":"prefixes"},{"id":"10.15787","type":"prefixes"},{"id":"10.15786","type":"prefixes"},{"id":"10.15785","type":"prefixes"},{"id":"10.15784","type":"prefixes"},{"id":"10.15779","type":"prefixes"},{"id":"10.15780","type":"prefixes"},{"id":"10.15781","type":"prefixes"},{"id":"10.15782","type":"prefixes"},{"id":"10.15783","type":"prefixes"},{"id":"10.17612","type":"prefixes"},{"id":"10.17613","type":"prefixes"},{"id":"10.17610","type":"prefixes"},{"id":"10.17611","type":"prefixes"},{"id":"10.17616","type":"prefixes"},{"id":"10.17614","type":"prefixes"},{"id":"10.17615","type":"prefixes"},{"id":"10.17602","type":"prefixes"},{"id":"10.17603","type":"prefixes"},{"id":"10.17604","type":"prefixes"},{"id":"10.17605","type":"prefixes"},{"id":"10.17606","type":"prefixes"},{"id":"10.17607","type":"prefixes"},{"id":"10.17608","type":"prefixes"},{"id":"10.17609","type":"prefixes"},{"id":"10.17909","type":"prefixes"},{"id":"10.17908","type":"prefixes"},{"id":"10.17916","type":"prefixes"},{"id":"10.17915","type":"prefixes"},{"id":"10.17918","type":"prefixes"},{"id":"10.17917","type":"prefixes"},{"id":"10.17919","type":"prefixes"},{"id":"10.17910","type":"prefixes"},{"id":"10.17912","type":"prefixes"},{"id":"10.17911","type":"prefixes"},{"id":"10.17914","type":"prefixes"},{"id":"10.17913","type":"prefixes"},{"id":"10.17920","type":"prefixes"},{"id":"10.18130","type":"prefixes"},{"id":"10.18131","type":"prefixes"},{"id":"10.18128","type":"prefixes"},{"id":"10.18127","type":"prefixes"},{"id":"10.18129","type":"prefixes"},{"id":"10.18125","type":"prefixes"},{"id":"10.18126","type":"prefixes"},{"id":"10.18123","type":"prefixes"},{"id":"10.18124","type":"prefixes"},{"id":"10.18121","type":"prefixes"},{"id":"10.18122","type":"prefixes"},{"id":"10.18120","type":"prefixes"},{"id":"10.18119","type":"prefixes"},{"id":"10.18118","type":"prefixes"},{"id":"10.18117","type":"prefixes"},{"id":"10.18116","type":"prefixes"},{"id":"10.18115","type":"prefixes"},{"id":"10.18114","type":"prefixes"},{"id":"10.18113","type":"prefixes"},{"id":"10.18112","type":"prefixes"},{"id":"10.18433","type":"prefixes"},{"id":"10.18434","type":"prefixes"},{"id":"10.18431","type":"prefixes"},{"id":"10.18432","type":"prefixes"},{"id":"10.18430","type":"prefixes"},{"id":"10.18435","type":"prefixes"},{"id":"10.18436","type":"prefixes"},{"id":"10.18437","type":"prefixes"},{"id":"10.18438","type":"prefixes"},{"id":"10.18439","type":"prefixes"},{"id":"10.18737","type":"prefixes"},{"id":"10.18736","type":"prefixes"},{"id":"10.18739","type":"prefixes"},{"id":"10.18738","type":"prefixes"},{"id":"10.18733","type":"prefixes"},{"id":"10.18732","type":"prefixes"},{"id":"10.18735","type":"prefixes"},{"id":"10.18734","type":"prefixes"},{"id":"10.18740","type":"prefixes"},{"id":"10.18741","type":"prefixes"},{"id":"10.20360","type":"prefixes"},{"id":"10.20361","type":"prefixes"},{"id":"10.20353","type":"prefixes"},{"id":"10.20354","type":"prefixes"},{"id":"10.20355","type":"prefixes"},{"id":"10.20356","type":"prefixes"},{"id":"10.20352","type":"prefixes"},{"id":"10.20357","type":"prefixes"},{"id":"10.20358","type":"prefixes"},{"id":"10.20359","type":"prefixes"},{"id":"10.21228","type":"prefixes"},{"id":"10.21229","type":"prefixes"},{"id":"10.21226","type":"prefixes"},{"id":"10.21227","type":"prefixes"},{"id":"10.21224","type":"prefixes"},{"id":"10.21225","type":"prefixes"},{"id":"10.21222","type":"prefixes"},{"id":"10.21223","type":"prefixes"},{"id":"10.21220","type":"prefixes"},{"id":"10.21221","type":"prefixes"},{"id":"10.21237","type":"prefixes"},{"id":"10.21238","type":"prefixes"},{"id":"10.21239","type":"prefixes"},{"id":"10.21233","type":"prefixes"},{"id":"10.21234","type":"prefixes"},{"id":"10.21235","type":"prefixes"},{"id":"10.21236","type":"prefixes"},{"id":"10.21230","type":"prefixes"},{"id":"10.21231","type":"prefixes"},{"id":"10.21232","type":"prefixes"},{"id":"10.21430","type":"prefixes"},{"id":"10.21433","type":"prefixes"},{"id":"10.21431","type":"prefixes"},{"id":"10.21432","type":"prefixes"},{"id":"10.21420","type":"prefixes"},{"id":"10.21421","type":"prefixes"},{"id":"10.21422","type":"prefixes"},{"id":"10.21423","type":"prefixes"},{"id":"10.21424","type":"prefixes"},{"id":"10.21425","type":"prefixes"},{"id":"10.21426","type":"prefixes"},{"id":"10.21427","type":"prefixes"},{"id":"10.21428","type":"prefixes"},{"id":"10.21429","type":"prefixes"},{"id":"10.21419","type":"prefixes"},{"id":"10.21417","type":"prefixes"},{"id":"10.21418","type":"prefixes"},{"id":"10.21415","type":"prefixes"},{"id":"10.21416","type":"prefixes"},{"id":"10.21414","type":"prefixes"},{"id":"10.21970","type":"prefixes"},{"id":"10.21971","type":"prefixes"},{"id":"10.21972","type":"prefixes"},{"id":"10.21973","type":"prefixes"},{"id":"10.21974","type":"prefixes"},{"id":"10.21975","type":"prefixes"},{"id":"10.21976","type":"prefixes"},{"id":"10.21977","type":"prefixes"},{"id":"10.21978","type":"prefixes"},{"id":"10.21979","type":"prefixes"},{"id":"10.21969","type":"prefixes"},{"id":"10.21968","type":"prefixes"},{"id":"10.21992","type":"prefixes"},{"id":"10.21990","type":"prefixes"},{"id":"10.21991","type":"prefixes"},{"id":"10.21983","type":"prefixes"},{"id":"10.21984","type":"prefixes"},{"id":"10.21981","type":"prefixes"},{"id":"10.21982","type":"prefixes"},{"id":"10.21980","type":"prefixes"},{"id":"10.21989","type":"prefixes"},{"id":"10.21987","type":"prefixes"},{"id":"10.21988","type":"prefixes"},{"id":"10.21985","type":"prefixes"},{"id":"10.21986","type":"prefixes"},{"id":"10.5195","type":"prefixes"}]}}},{"id":"tind","type":"providers","attributes":{"name":"TIND
        Technologies","symbol":"TIND","website":null,"contact-name":"Alexander Nietzold","contact-email":"alexander@tind.io","phone":null,"description":null,"region":null,"country":null,"logo-url":null,"institution-type":null,"is-active":true,"has-password":true,"joined":null,"created":"2016-06-08T18:16:18.000Z","updated":"2018-08-26T01:25:41.000Z"},"relationships":{"prefixes":{"data":[{"id":"10.5072","type":"prefixes"},{"id":"10.0165","type":"prefixes"},{"id":"10.22005","type":"prefixes"},{"id":"10.22003","type":"prefixes"},{"id":"10.22004","type":"prefixes"},{"id":"10.22001","type":"prefixes"},{"id":"10.22002","type":"prefixes"},{"id":"10.70047","type":"prefixes"}]}}}],"meta":{"total":5,"total-pages":1,"page":1,"years":[{"id":"2012","title":"2012","count":1},{"id":"2013","title":"2013","count":1},{"id":"2014","title":"2014","count":1},{"id":"2016","title":"2016","count":2}],"providers":[{"id":"cdl","title":"California
        Digital Library","count":4},{"id":"tind","title":"TIND Technologies","count":1}]},"links":{"self":"https://app.test.datacite.org/clients?include=provider&query=california","next":"https://app.test.datacite.org/clients?page%5Bnumber%5D=2&page%5Bsize%5D=25&query=california"}}'
    http_version: 
  recorded_at: Fri, 21 Sep 2018 06:42:54 GMT
recorded_with: VCR 3.0.3
