---
http_interactions:
- request:
    method: get
    uri: http://profiles/api/users?page%5Bnumber%5D=1&page%5Bsize%5D=50
    body:
      encoding: US-ASCII
      string: ''
    headers:
      User-Agent:
      - Maremma - http://api.local
      Accept:
      - text/html,application/json,application/xml;q=0.9, text/plain;q=0.8,image/png,*/*;q=0.5
  response:
    status:
      code: 200
      message: ''
    headers:
      Content-Type:
      - application/json; charset=utf-8
      Connection:
      - keep-alive
      Status:
      - 200 OK
      Cache-Control:
      - max-age=0, private, must-revalidate
      Access-Control-Allow-Origin:
      - "*"
      Vary:
      - Accept-Encoding
      Access-Control-Max-Age:
      - '1728000'
      X-Xss-Protection:
      - 1; mode=block
      X-Request-Id:
      - 2626df2c-3dcf-4bfe-aee1-f35037d9d65b
      Access-Control-Allow-Headers:
      - Origin, Content-Type, Accept, Authorization, Token
      Access-Control-Allow-Methods:
      - POST, GET, PUT, DELETE, OPTIONS
      Etag:
      - W/"8f87e2752b1de7402e735562972197e4"
      X-Frame-Options:
      - SAMEORIGIN
      X-Runtime:
      - '1.580653'
      X-Content-Type-Options:
      - nosniff
      Date:
      - Wed, 01 Feb 2017 00:57:01 GMT
      X-Powered-By:
      - Phusion Passenger 5.0.30
      Server:
      - nginx/1.10.1 + Phusion Passenger 5.0.30
    body:
      encoding: UTF-8
      string: '{"data":[{"id":"http://orcid.org/0000-0002-6909-1823","type":"users","attributes":{"given-names":"Ramesh","family-name":"A","credit-name":"Ramesh
        A","orcid":"http://orcid.org/0000-0002-6909-1823","github":null,"updated":"2015-12-01T11:08:45.000Z"},"relationships":{"claims":{"data":[]}}},{"id":"http://orcid.org/0000-0001-6116-594X","type":"users","attributes":{"given-names":"Senthil
        Kumar","family-name":"A","credit-name":"Senthil Kumar A","orcid":"http://orcid.org/0000-0001-6116-594X","github":null,"updated":"2015-11-17T11:57:10.000Z"},"relationships":{"claims":{"data":[]}}},{"id":"http://orcid.org/0000-0001-8778-9902","type":"users","attributes":{"given-names":"Ebinesh","family-name":"A","credit-name":"Ebinesh
        A.","orcid":"http://orcid.org/0000-0001-8778-9902","github":null,"updated":"2016-04-27T05:32:24.000Z"},"relationships":{"claims":{"data":[]}}},{"id":"http://orcid.org/0000-0003-0357-8572","type":"users","attributes":{"given-names":"Aadhityan","family-name":"A","credit-name":"Aadhityan
        A","orcid":"http://orcid.org/0000-0003-0357-8572","github":null,"updated":"2016-03-13T11:56:36.000Z"},"relationships":{"claims":{"data":[]}}},{"id":"http://orcid.org/0000-0001-7699-5962","type":"users","attributes":{"given-names":"Khumran","family-name":"A.
        M.","credit-name":"Khumran A. M.","orcid":"http://orcid.org/0000-0001-7699-5962","github":null,"updated":"2015-12-22T16:39:13.000Z"},"relationships":{"claims":{"data":[{"id":"e66f6b20-bcf5-484a-9363-9fb559c016bd","type":"claims"},{"id":"dc7b1007-3302-4ea0-bbfb-2bc80c7b0584","type":"claims"}]}}},{"id":"http://orcid.org/0000-0002-5204-4457","type":"users","attributes":{"given-names":"Everton","family-name":"A.
        Maciel","credit-name":"Everton A. Maciel","orcid":"http://orcid.org/0000-0002-5204-4457","github":null,"updated":"2016-10-13T00:26:01.000Z"},"relationships":{"claims":{"data":[]}}},{"id":"http://orcid.org/0000-0002-3260-7005","type":"users","attributes":{"given-names":"Jesper","family-name":"Aagaard","credit-name":"Jesper
        Aagaard","orcid":"http://orcid.org/0000-0002-3260-7005","github":null,"updated":"2016-03-10T19:26:25.000Z"},"relationships":{"claims":{"data":[]}}},{"id":"http://orcid.org/0000-0002-4647-3706","type":"users","attributes":{"given-names":"Helge","family-name":"Aagaard
        Madsen ","credit-name":"Helge Aagaard Madsen","orcid":"http://orcid.org/0000-0002-4647-3706","github":null,"updated":"2016-06-22T09:23:39.000Z"},"relationships":{"claims":{"data":[]}}},{"id":"http://orcid.org/0000-0003-0725-9448","type":"users","attributes":{"given-names":"David","family-name":"Aagten-Murphy","credit-name":"David
        Aagten-Murphy","orcid":"http://orcid.org/0000-0003-0725-9448","github":null,"updated":"2016-03-23T16:17:54.000Z"},"relationships":{"claims":{"data":[]}}},{"id":"http://orcid.org/0000-0002-4604-7192","type":"users","attributes":{"given-names":"Erik","family-name":"Aasland","credit-name":"Erik
        Aasland","orcid":"http://orcid.org/0000-0002-4604-7192","github":null,"updated":"2016-07-05T21:40:07.000Z"},"relationships":{"claims":{"data":[]}}},{"id":"http://orcid.org/0000-0003-2938-0978","type":"users","attributes":{"given-names":"Wajeehah","family-name":"Aayeshah","credit-name":"Wajeehah
        Aayeshah","orcid":"http://orcid.org/0000-0003-2938-0978","github":null,"updated":"2016-06-19T23:58:56.000Z"},"relationships":{"claims":{"data":[]}}},{"id":"http://orcid.org/0000-0002-9339-8999","type":"users","attributes":{"given-names":"Smail","family-name":"AAZZA","credit-name":"Smail
        AAZZA","orcid":"http://orcid.org/0000-0002-9339-8999","github":null,"updated":"2016-10-06T00:52:42.000Z"},"relationships":{"claims":{"data":[]}}},{"id":"http://orcid.org/0000-0001-7263-2953","type":"users","attributes":{"given-names":"Mohd
        Zainal Abidin","family-name":"Ab Kadir","credit-name":"M.Z.A. Ab Kadir","orcid":"http://orcid.org/0000-0001-7263-2953","github":null,"updated":"2016-04-18T03:01:58.000Z"},"relationships":{"claims":{"data":[]}}},{"id":"http://orcid.org/0000-0002-6510-9272","type":"users","attributes":{"given-names":"Ahmad","family-name":"Ababaei","credit-name":"Ahmad
        Ababaei","orcid":"http://orcid.org/0000-0002-6510-9272","github":null,"updated":"2016-06-17T15:42:44.000Z"},"relationships":{"claims":{"data":[]}}},{"id":"http://orcid.org/0000-0001-5611-4996","type":"users","attributes":{"given-names":"FRANCISCA","family-name":"ABAD-GARCIA","credit-name":"FRANCISCA
        ABAD-GARCIA","orcid":"http://orcid.org/0000-0001-5611-4996","github":null,"updated":"2016-04-08T10:30:20.000Z"},"relationships":{"claims":{"data":[]}}},{"id":"http://orcid.org/0000-0002-4766-896X","type":"users","attributes":{"given-names":"Eduardo
        André de Azevedo","family-name":"Abade","credit-name":"Eduardo André de Azevedo
        Abade","orcid":"http://orcid.org/0000-0002-4766-896X","github":null,"updated":"2016-02-03T20:42:58.000Z"},"relationships":{"claims":{"data":[]}}},{"id":"http://orcid.org/0000-0002-4189-5563","type":"users","attributes":{"given-names":"Diego","family-name":"Abalos","credit-name":"Diego
        Abalos","orcid":"http://orcid.org/0000-0002-4189-5563","github":null,"updated":"2016-10-07T09:30:08.000Z"},"relationships":{"claims":{"data":[]}}},{"id":"http://orcid.org/0000-0001-9136-0041","type":"users","attributes":{"given-names":"Michel","family-name":"Abanto
        Marín","credit-name":"Michel Abanto Marín","orcid":"http://orcid.org/0000-0001-9136-0041","github":null,"updated":"2016-03-07T01:23:49.000Z"},"relationships":{"claims":{"data":[]}}},{"id":"http://orcid.org/0000-0002-7214-2986","type":"users","attributes":{"given-names":"Naeem","family-name":"Abas","credit-name":"Naeem
        Abas","orcid":"http://orcid.org/0000-0002-7214-2986","github":null,"updated":"2016-02-04T17:15:31.000Z"},"relationships":{"claims":{"data":[{"id":"ef6278f8-a08b-407e-b9fb-5005ceadf9e4","type":"claims"},{"id":"1248f1f7-4dd6-486f-a989-ddcc3cb81546","type":"claims"},{"id":"5b54f52f-3e7f-45ca-93cf-30ab51c316ce","type":"claims"},{"id":"bba99cf1-759c-4289-9259-a404ebc838fb","type":"claims"},{"id":"43acbb2b-c02d-49c7-bbe5-00a9a36ccce7","type":"claims"}]}}},{"id":"http://orcid.org/0000-0003-4829-3204","type":"users","attributes":{"given-names":"Irina","family-name":"Abaturova","credit-name":"Irina
        Abaturova","orcid":"http://orcid.org/0000-0003-4829-3204","github":null,"updated":"2016-02-19T13:11:14.000Z"},"relationships":{"claims":{"data":[]}}},{"id":"http://orcid.org/0000-0003-2482-5691","type":"users","attributes":{"given-names":"Enika","family-name":"Abazi","credit-name":"Enika
        Abazi","orcid":"http://orcid.org/0000-0003-2482-5691","github":null,"updated":"2016-09-25T09:24:16.000Z"},"relationships":{"claims":{"data":[]}}},{"id":"http://orcid.org/0000-0002-0235-9178","type":"users","attributes":{"given-names":"Dino","family-name":"Abazović","credit-name":"Dino
        Abazović","orcid":"http://orcid.org/0000-0002-0235-9178","github":null,"updated":"2016-06-13T13:20:15.000Z"},"relationships":{"claims":{"data":[]}}},{"id":"http://orcid.org/0000-0001-7888-9004","type":"users","attributes":{"given-names":"Yusuf","family-name":"Abba","credit-name":"Yusuf
        Abba","orcid":"http://orcid.org/0000-0001-7888-9004","github":null,"updated":"2016-03-15T16:06:20.000Z"},"relationships":{"claims":{"data":[]}}},{"id":"http://orcid.org/0000-0001-9507-5440","type":"users","attributes":{"given-names":"Benjamin","family-name":"Abban","credit-name":"Benjamin
        Abban","orcid":"http://orcid.org/0000-0001-9507-5440","github":null,"updated":"2016-03-14T22:19:17.000Z"},"relationships":{"claims":{"data":[]}}},{"id":"http://orcid.org/0000-0003-2141-7510","type":"users","attributes":{"given-names":"Shujaat","family-name":"Abbas","credit-name":"Shujaat
        Abbas","orcid":"http://orcid.org/0000-0003-2141-7510","github":null,"updated":"2015-12-17T20:20:57.000Z"},"relationships":{"claims":{"data":[]}}},{"id":"http://orcid.org/0000-0001-8001-328X","type":"users","attributes":{"given-names":"Eslam","family-name":"Abbas","credit-name":"Eslam
        Abbas","orcid":"http://orcid.org/0000-0001-8001-328X","github":null,"updated":"2016-03-29T11:01:38.000Z"},"relationships":{"claims":{"data":[{"id":"56134996-eb46-4349-83e9-b19424375912","type":"claims"},{"id":"aec16265-bf6d-4473-9390-628b14350e44","type":"claims"},{"id":"2a1d8f93-0b4b-4d51-a421-168ae23a5988","type":"claims"}]}}},{"id":"http://orcid.org/0000-0002-3128-606X","type":"users","attributes":{"given-names":"Badaruddin","family-name":"Abbasi","credit-name":"B.
        Abbasi","orcid":"http://orcid.org/0000-0002-3128-606X","github":null,"updated":"2016-01-11T19:24:43.000Z"},"relationships":{"claims":{"data":[]}}},{"id":"http://orcid.org/0000-0003-4805-8714","type":"users","attributes":{"given-names":"Iftikhar","family-name":"Abbasov","credit-name":"Iftikhar
        Abbasov","orcid":"http://orcid.org/0000-0003-4805-8714","github":null,"updated":"2016-10-04T11:50:55.000Z"},"relationships":{"claims":{"data":[{"id":"c060beb9-80b1-4268-9a86-2c1cc0d4f7ff","type":"claims"},{"id":"b9a1352b-af0c-4825-bd0c-a183b5ca5028","type":"claims"},{"id":"530d4d37-3453-4316-a559-77b49bdcc230","type":"claims"},{"id":"1b058b57-838b-409a-9a63-96f9e203d409","type":"claims"},{"id":"6eb270a8-0336-4f61-b0e4-69b97f1f1e1c","type":"claims"},{"id":"5e06f396-0ac9-4062-8fa2-c608626dbd1a","type":"claims"},{"id":"00e04ac5-ebb1-4826-901e-20fa102cbb6d","type":"claims"},{"id":"f4b9df67-64c1-4cd1-9f10-e259d0f492a4","type":"claims"},{"id":"9ceef260-295c-4b96-a64f-a5c033a6b936","type":"claims"},{"id":"54bf6358-ccca-47a9-a021-913ae2ce40bf","type":"claims"},{"id":"17b67aa2-e0ba-4d13-bc76-9d73cc0d6165","type":"claims"},{"id":"c299ddd2-cb4b-48ca-9e10-d414b4fb24d4","type":"claims"},{"id":"59f04aef-271f-4599-8f25-ae6328a21409","type":"claims"},{"id":"0b448330-2444-40ac-a944-a6dbac5838a5","type":"claims"},{"id":"df960be3-3e94-4e34-bf42-f67688ec5743","type":"claims"},{"id":"e8a495bd-a0c0-4ac3-a7d3-0d7cfc36118a","type":"claims"},{"id":"b4a58eee-552d-4303-99b9-3ce1fab43b77","type":"claims"},{"id":"ae06fedd-87e9-44da-8966-da048828d4f5","type":"claims"}]}}},{"id":"http://orcid.org/0000-0003-0899-0232","type":"users","attributes":{"given-names":"Abbas","family-name":"Abbaszadeh","credit-name":"Abbas
        Abbaszadeh","orcid":"http://orcid.org/0000-0003-0899-0232","github":null,"updated":"2016-04-16T12:38:44.000Z"},"relationships":{"claims":{"data":[{"id":"40789576-8603-443e-a187-451e513c05fd","type":"claims"},{"id":"3a7d0e53-a741-4a90-8fe3-b7e0c6fb7c7c","type":"claims"}]}}},{"id":"http://orcid.org/0000-0002-3736-2086","type":"users","attributes":{"given-names":"Mahmoud","family-name":"Abbaszadeh","credit-name":"Mahmoud
        Abbaszadeh","orcid":"http://orcid.org/0000-0002-3736-2086","github":null,"updated":"2016-06-10T10:22:49.000Z"},"relationships":{"claims":{"data":[]}}},{"id":"http://orcid.org/0000-0003-1955-3492","type":"users","attributes":{"given-names":"Davood","family-name":"Abbaszadeh","credit-name":"Davood
        Abbaszadeh","orcid":"http://orcid.org/0000-0003-1955-3492","github":null,"updated":"2016-03-29T08:17:26.000Z"},"relationships":{"claims":{"data":[]}}},{"id":"http://orcid.org/0000-0002-5175-4756","type":"users","attributes":{"given-names":"Kristopher","family-name":"Abbate","credit-name":"Kristopher
        Abbate","orcid":"http://orcid.org/0000-0002-5175-4756","github":null,"updated":"2016-08-07T02:56:58.000Z"},"relationships":{"claims":{"data":[]}}},{"id":"http://orcid.org/0000-0002-7820-5060","type":"users","attributes":{"given-names":"Maartje","family-name":"Abbenhuis","credit-name":"Maartje
        Abbenhuis","orcid":"http://orcid.org/0000-0002-7820-5060","github":null,"updated":"2016-07-19T04:29:59.000Z"},"relationships":{"claims":{"data":[{"id":"3255a3ae-ce8b-46d8-aab8-0c0fd95f54e0","type":"claims"}]}}},{"id":"http://orcid.org/0000-0003-3287-3175","type":"users","attributes":{"given-names":"Rosalyn","family-name":"Abbott","credit-name":"Rosalyn
        Abbott","orcid":"http://orcid.org/0000-0003-3287-3175","github":null,"updated":"2016-05-19T22:07:51.000Z"},"relationships":{"claims":{"data":[]}}},{"id":"http://orcid.org/0000-0003-4745-896X","type":"users","attributes":{"given-names":"Nagwa","family-name":"Abd
        EL-Ghaffar","credit-name":"Nagwa Abd EL-Ghaffar","orcid":"http://orcid.org/0000-0003-4745-896X","github":null,"updated":"2016-04-24T13:54:26.000Z"},"relationships":{"claims":{"data":[]}}},{"id":"http://orcid.org/0000-0002-0637-5597","type":"users","attributes":{"given-names":"Nesreen","family-name":"Abd
        El-Ghany","credit-name":"Nesreen Abd El-Ghany","orcid":"http://orcid.org/0000-0002-0637-5597","github":null,"updated":"2016-01-23T09:16:16.000Z"},"relationships":{"claims":{"data":[]}}},{"id":"http://orcid.org/0000-0002-6506-7914","type":"users","attributes":{"given-names":"Mohamed","family-name":"Abd
        El-Wahed","credit-name":"Mohamed Abd El-Wahed","orcid":"http://orcid.org/0000-0002-6506-7914","github":null,"updated":"2016-03-29T13:05:50.000Z"},"relationships":{"claims":{"data":[]}}},{"id":"http://orcid.org/0000-0003-1616-5398","type":"users","attributes":{"given-names":"Ebtihal","family-name":"Abd
        Elhamid","credit-name":"Ebtihal Abd Elhamid","orcid":"http://orcid.org/0000-0003-1616-5398","github":null,"updated":"2016-01-07T16:29:02.000Z"},"relationships":{"claims":{"data":[]}}},{"id":"http://orcid.org/0000-0002-6809-8433","type":"users","attributes":{"given-names":"Aini
        Ismafairus","family-name":"Abd Hamid","credit-name":"Aini Ismafairus Abd Hamid","orcid":"http://orcid.org/0000-0002-6809-8433","github":null,"updated":"2016-09-06T07:46:13.000Z"},"relationships":{"claims":{"data":[]}}},{"id":"http://orcid.org/0000-0003-3558-8783","type":"users","attributes":{"given-names":"M.
        Shabri","family-name":"Abd. Majid","credit-name":"M. Shabri Abd. Majid","orcid":"http://orcid.org/0000-0003-3558-8783","github":null,"updated":"2016-01-06T18:56:50.000Z"},"relationships":{"claims":{"data":[]}}},{"id":"http://orcid.org/0000-0002-7308-2620","type":"users","attributes":{"given-names":"Mohamed","family-name":"Abdallah","credit-name":"Mohamed
        A Abdallah","orcid":"http://orcid.org/0000-0002-7308-2620","github":null,"updated":"2016-01-30T11:59:11.000Z"},"relationships":{"claims":{"data":[]}}},{"id":"http://orcid.org/0000-0003-0569-6206","type":"users","attributes":{"given-names":"Amgad","family-name":"Abdarbou","credit-name":"Amgad
        Abdarbou","orcid":"http://orcid.org/0000-0003-0569-6206","github":null,"updated":"2016-05-10T15:07:25.000Z"},"relationships":{"claims":{"data":[]}}},{"id":"http://orcid.org/0000-0002-1790-3180","type":"users","attributes":{"given-names":"Doaa","family-name":"Abdel
        Aziz","credit-name":"Doaa Abdel Aziz","orcid":"http://orcid.org/0000-0002-1790-3180","github":null,"updated":"2016-01-12T07:34:59.000Z"},"relationships":{"claims":{"data":[]}}},{"id":"http://orcid.org/0000-0002-8620-7023","type":"users","attributes":{"given-names":"Patricia","family-name":"Abdel
        Rahim","credit-name":"G.P. Abdel Rahim","orcid":"http://orcid.org/0000-0002-8620-7023","github":null,"updated":"2016-05-30T04:15:42.000Z"},"relationships":{"claims":{"data":[]}}},{"id":"http://orcid.org/0000-0001-6831-1524","type":"users","attributes":{"given-names":"Aly","family-name":"Abdel-Moemin","credit-name":"Aly
        Abdel-Moemin","orcid":"http://orcid.org/0000-0001-6831-1524","github":null,"updated":"2016-05-01T07:30:37.000Z"},"relationships":{"claims":{"data":[{"id":"7a4b6760-4096-4530-ac0e-1e6b15a31887","type":"claims"},{"id":"0f5ace2a-9359-4ae4-8eab-1e6be81ec1f5","type":"claims"}]}}},{"id":"http://orcid.org/0000-0001-9240-064X","type":"users","attributes":{"given-names":"Mohamed","family-name":"Abdel-Raheem","credit-name":"Mohamed
        Abdel-Raheem","orcid":"http://orcid.org/0000-0001-9240-064X","github":null,"updated":"2015-12-31T18:45:30.000Z"},"relationships":{"claims":{"data":[]}}},{"id":"http://orcid.org/0000-0003-3871-9961","type":"users","attributes":{"given-names":"Omar","family-name":"Abdel-Razzak","credit-name":"Omar
        Abdel-Razzak","orcid":"http://orcid.org/0000-0003-3871-9961","github":null,"updated":"2015-11-22T22:29:44.000Z"},"relationships":{"claims":{"data":[]}}},{"id":"http://orcid.org/0000-0002-7459-0483","type":"users","attributes":{"given-names":"Ahmed","family-name":"Abdel-Salam","credit-name":"Ahmed
        Abdel-Salam","orcid":"http://orcid.org/0000-0002-7459-0483","github":null,"updated":"2016-09-05T10:39:14.000Z"},"relationships":{"claims":{"data":[]}}},{"id":"http://orcid.org/0000-0002-2521-7076","type":"users","attributes":{"given-names":"Azza","family-name":"Abdel-Shaheed","credit-name":"Azza
        Abdel-Shaheed","orcid":"http://orcid.org/0000-0002-2521-7076","github":null,"updated":"2016-01-17T21:47:10.000Z"},"relationships":{"claims":{"data":[]}}},{"id":"http://orcid.org/0000-0002-7882-2560","type":"users","attributes":{"given-names":"Hussein
        M. Abdelsalam","family-name":"Abdelfatah","credit-name":"Hussein Abdelfatah","orcid":"http://orcid.org/0000-0002-7882-2560","github":null,"updated":"2016-10-03T21:03:48.000Z"},"relationships":{"claims":{"data":[]}}}],"links":{"self":"http://profiles/api/users?page%5Bnumber%5D=1\u0026page%5Bsize%5D=50","next":"http://profiles/api/users?page%5Bnumber%5D=2\u0026page%5Bsize%5D=50","last":"http://profiles/api/users?page%5Bnumber%5D=332\u0026page%5Bsize%5D=50"},"meta":{"total":16575,"total-pages":332,"page":1}}'
    http_version: 
  recorded_at: Wed, 01 Feb 2017 00:57:01 GMT
recorded_with: VCR 2.9.3
