---
http_interactions:
- request:
    method: get
    uri: https://profiles.test.datacite.org/api/users?page%5Bnumber%5D=1&page%5Bsize%5D=50
    body:
      encoding: US-ASCII
      string: ''
    headers:
      User-Agent:
      - Maremma - http://api.local
      Accept:
      - text/html,application/json,application/xml;q=0.9, text/plain;q=0.8,image/png,*/*;q=0.5
  response:
    status:
      code: 200
      message: ''
    headers:
      Access-Control-Allow-Headers:
      - Origin, Content-Type, Accept, Authorization, Token
      Access-Control-Allow-Methods:
      - GET, POST, OPTIONS
      Access-Control-Allow-Origin:
      - "*"
      Access-Control-Max-Age:
      - '1728000'
      Cache-Control:
      - max-age=0, private, must-revalidate
      Content-Type:
      - application/json; charset=utf-8
      Date:
      - Mon, 10 Jul 2017 12:31:20 GMT
      Etag:
      - W/"4fd85d6ec38c48f17533a93cdbe71067"
      Server:
      - openresty/1.11.2.2
      Status:
      - 200 OK
      Vary:
      - Accept-Encoding
      X-Content-Type-Options:
      - nosniff
      X-Frame-Options:
      - SAMEORIGIN
      X-Powered-By:
      - Phusion Passenger 5.1.5
      X-Request-Id:
      - eec057cc-2786-4145-8add-723327725730
      X-Runtime:
      - '0.143269'
      X-Xss-Protection:
      - 1; mode=block
      Content-Length:
      - '14089'
      Connection:
      - keep-alive
    body:
      encoding: UTF-8
      string: '{"data":[{"id":"http://orcid.org/0000-0002-6909-1823","type":"users","attributes":{"given-names":"Ramesh","family-name":"A","credit-name":"Ramesh
        A","orcid":"0000-0002-6909-1823","github":null,"created":"2015-12-01T11:08:45Z","updated":"2015-12-01T11:08:45Z"}},{"id":"http://orcid.org/0000-0001-6116-594X","type":"users","attributes":{"given-names":"Senthil
        Kumar","family-name":"A","credit-name":"Senthil Kumar A","orcid":"0000-0001-6116-594X","github":null,"created":"2015-11-17T11:57:10Z","updated":"2015-11-17T11:57:10Z"}},{"id":"http://orcid.org/0000-0001-8778-9902","type":"users","attributes":{"given-names":"Ebinesh","family-name":"A","credit-name":"Ebinesh
        A.","orcid":"0000-0001-8778-9902","github":null,"created":"2016-04-27T05:32:24Z","updated":"2016-04-27T05:32:24Z"}},{"id":"http://orcid.org/0000-0003-0357-8572","type":"users","attributes":{"given-names":"Aadhityan","family-name":"A","credit-name":"Aadhityan
        A","orcid":"0000-0003-0357-8572","github":null,"created":"2016-03-13T11:56:36Z","updated":"2016-03-13T11:56:36Z"}},{"id":"http://orcid.org/0000-0002-4166-4263","type":"users","attributes":{"given-names":"Sreejith","family-name":"A.
        G.","credit-name":"Sreejith A. G.","orcid":"0000-0002-4166-4263","github":null,"created":"2016-11-01T04:46:18Z","updated":"2016-11-01T04:46:18Z"}},{"id":"http://orcid.org/0000-0001-9149-7371","type":"users","attributes":{"given-names":"Ignacio","family-name":"A.
        Lazagabaster","credit-name":"Ignacio A. Lazagabaster","orcid":"0000-0001-9149-7371","github":null,"created":"2016-11-21T22:46:06Z","updated":"2016-11-21T22:46:43Z"}},{"id":"http://orcid.org/0000-0001-7699-5962","type":"users","attributes":{"given-names":"Khumran","family-name":"A.
        M.","credit-name":"Khumran A. M.","orcid":"0000-0001-7699-5962","github":null,"created":"2015-12-22T16:39:09Z","updated":"2015-12-22T16:39:13Z"}},{"id":"http://orcid.org/0000-0002-5204-4457","type":"users","attributes":{"given-names":"Everton","family-name":"A.
        Maciel","credit-name":"Everton A. Maciel","orcid":"0000-0002-5204-4457","github":null,"created":"2016-10-13T00:26:01Z","updated":"2016-10-13T00:26:01Z"}},{"id":"http://orcid.org/0000-0002-3260-7005","type":"users","attributes":{"given-names":"Jesper","family-name":"Aagaard","credit-name":"Jesper
        Aagaard","orcid":"0000-0002-3260-7005","github":null,"created":"2016-03-10T19:26:25Z","updated":"2016-03-10T19:26:25Z"}},{"id":"http://orcid.org/0000-0002-4647-3706","type":"users","attributes":{"given-names":"Helge","family-name":"Aagaard
        Madsen ","credit-name":"Helge Aagaard Madsen","orcid":"0000-0002-4647-3706","github":null,"created":"2016-06-22T09:23:39Z","updated":"2016-06-22T09:23:39Z"}},{"id":"http://orcid.org/0000-0003-0725-9448","type":"users","attributes":{"given-names":"David","family-name":"Aagten-Murphy","credit-name":"David
        Aagten-Murphy","orcid":"0000-0003-0725-9448","github":null,"created":"2016-03-23T16:17:54Z","updated":"2016-03-23T16:17:54Z"}},{"id":"http://orcid.org/0000-0002-4604-7192","type":"users","attributes":{"given-names":"Erik","family-name":"Aasland","credit-name":"Erik
        Aasland","orcid":"0000-0002-4604-7192","github":null,"created":"2016-07-05T21:40:07Z","updated":"2016-07-05T21:40:07Z"}},{"id":"http://orcid.org/0000-0003-2938-0978","type":"users","attributes":{"given-names":"Wajeehah","family-name":"Aayeshah","credit-name":"Wajeehah
        Aayeshah","orcid":"0000-0003-2938-0978","github":null,"created":"2016-06-19T23:58:56Z","updated":"2016-06-19T23:58:56Z"}},{"id":"http://orcid.org/0000-0002-9339-8999","type":"users","attributes":{"given-names":"Smail","family-name":"AAZZA","credit-name":"Smail
        AAZZA","orcid":"0000-0002-9339-8999","github":null,"created":"2016-10-06T00:50:27Z","updated":"2016-10-06T00:52:42Z"}},{"id":"http://orcid.org/0000-0001-7263-2953","type":"users","attributes":{"given-names":"Mohd
        Zainal Abidin","family-name":"Ab Kadir","credit-name":"M.Z.A. Ab Kadir","orcid":"0000-0001-7263-2953","github":null,"created":"2016-04-18T03:01:58Z","updated":"2016-04-18T03:01:58Z"}},{"id":"http://orcid.org/0000-0001-8190-9096","type":"users","attributes":{"given-names":"Mohamed
        Syazwan","family-name":"Ab Talib","credit-name":"Mohamed Syazwan Ab Talib","orcid":"0000-0001-8190-9096","github":null,"created":"2016-12-28T01:28:51Z","updated":"2016-12-28T01:28:51Z"}},{"id":"http://orcid.org/0000-0002-6510-9272","type":"users","attributes":{"given-names":"Ahmad","family-name":"Ababaei","credit-name":"Ahmad
        Ababaei","orcid":"0000-0002-6510-9272","github":null,"created":"2016-06-17T15:42:44Z","updated":"2016-06-17T15:42:44Z"}},{"id":"http://orcid.org/0000-0001-5611-4996","type":"users","attributes":{"given-names":"FRANCISCA","family-name":"ABAD-GARCIA","credit-name":"FRANCISCA
        ABAD-GARCIA","orcid":"0000-0001-5611-4996","github":null,"created":"2016-04-08T10:30:20Z","updated":"2016-04-08T10:30:20Z"}},{"id":"http://orcid.org/0000-0002-4766-896X","type":"users","attributes":{"given-names":"Eduardo
        André de Azevedo","family-name":"Abade","credit-name":"Eduardo André de Azevedo
        Abade","orcid":"0000-0002-4766-896X","github":null,"created":"2016-02-03T20:42:58Z","updated":"2016-02-03T20:42:58Z"}},{"id":"http://orcid.org/0000-0002-2091-4999","type":"users","attributes":{"given-names":"Adel","family-name":"Abadeer","credit-name":"Adel
        Abadeer","orcid":"0000-0002-2091-4999","github":null,"created":"2016-10-29T19:20:28Z","updated":"2016-10-29T19:20:38Z"}},{"id":"http://orcid.org/0000-0002-9407-5489","type":"users","attributes":{"given-names":"Totok
        Wahyu","family-name":"Abadi","credit-name":"Totok Wahyu Abadi","orcid":"0000-0002-9407-5489","github":null,"created":"2016-10-26T08:50:10Z","updated":"2016-10-26T08:50:10Z"}},{"id":"http://orcid.org/0000-0002-4189-5563","type":"users","attributes":{"given-names":"Diego","family-name":"Abalos","credit-name":"Diego
        Abalos","orcid":"0000-0002-4189-5563","github":null,"created":"2016-10-07T09:30:08Z","updated":"2016-10-07T09:30:08Z"}},{"id":"http://orcid.org/0000-0001-9136-0041","type":"users","attributes":{"given-names":"Michel","family-name":"Abanto
        Marín","credit-name":"Michel Abanto Marín","orcid":"0000-0001-9136-0041","github":null,"created":"2016-03-07T01:23:49Z","updated":"2016-03-07T01:23:49Z"}},{"id":"http://orcid.org/0000-0003-1478-7011","type":"users","attributes":{"given-names":"Muhamad
        Azahar","family-name":"Abas","credit-name":"Muhamad Azahar Abas","orcid":"0000-0003-1478-7011","github":null,"created":"2016-11-23T02:28:03Z","updated":"2016-11-23T02:31:18Z"}},{"id":"http://orcid.org/0000-0002-7214-2986","type":"users","attributes":{"given-names":"Naeem","family-name":"Abas","credit-name":"Naeem
        Abas","orcid":"0000-0002-7214-2986","github":null,"created":"2016-02-04T17:15:31Z","updated":"2016-02-04T17:15:31Z"}},{"id":"http://orcid.org/0000-0002-1974-0100","type":"users","attributes":{"given-names":"Khaleel
        I","family-name":"Abass","credit-name":"Khaleel I Abass","orcid":"0000-0002-1974-0100","github":null,"created":"2016-12-27T09:16:00Z","updated":"2016-12-27T09:16:00Z"}},{"id":"http://orcid.org/0000-0001-5098-2063","type":"users","attributes":{"given-names":"Yoseph","family-name":"Abate","credit-name":"Yoseph
        Abate","orcid":"0000-0001-5098-2063","github":null,"created":"2016-11-28T11:31:06Z","updated":"2016-11-28T11:34:56Z"}},{"id":"http://orcid.org/0000-0003-4829-3204","type":"users","attributes":{"given-names":"Irina","family-name":"Abaturova","credit-name":"Irina
        Abaturova","orcid":"0000-0003-4829-3204","github":null,"created":"2016-02-18T05:16:49Z","updated":"2016-02-19T13:11:14Z"}},{"id":"http://orcid.org/0000-0003-2482-5691","type":"users","attributes":{"given-names":"Enika","family-name":"Abazi","credit-name":"Enika
        Abazi","orcid":"0000-0003-2482-5691","github":null,"created":"2016-09-25T09:24:15Z","updated":"2016-09-25T09:24:16Z"}},{"id":"http://orcid.org/0000-0002-0235-9178","type":"users","attributes":{"given-names":"Dino","family-name":"Abazović","credit-name":"Dino
        Abazović","orcid":"0000-0002-0235-9178","github":null,"created":"2016-06-13T13:20:15Z","updated":"2016-06-13T13:20:15Z"}},{"id":"http://orcid.org/0000-0001-7888-9004","type":"users","attributes":{"given-names":"Yusuf","family-name":"Abba","credit-name":"Yusuf
        Abba","orcid":"0000-0001-7888-9004","github":null,"created":"2016-03-15T16:06:20Z","updated":"2016-03-15T16:06:20Z"}},{"id":"http://orcid.org/0000-0001-9507-5440","type":"users","attributes":{"given-names":"Benjamin","family-name":"Abban","credit-name":"Benjamin
        Abban","orcid":"0000-0001-9507-5440","github":null,"created":"2016-03-14T22:19:17Z","updated":"2016-03-14T22:19:17Z"}},{"id":"http://orcid.org/0000-0003-4848-6807","type":"users","attributes":{"given-names":"Atta","family-name":"Abbas","credit-name":"Atta
        Abbas","orcid":"0000-0003-4848-6807","github":null,"created":"2016-12-07T09:16:00Z","updated":"2016-12-07T09:16:10Z"}},{"id":"http://orcid.org/0000-0003-2141-7510","type":"users","attributes":{"given-names":"Shujaat","family-name":"Abbas","credit-name":"Shujaat
        Abbas","orcid":"0000-0003-2141-7510","github":null,"created":"2015-12-17T20:20:57Z","updated":"2015-12-17T20:20:57Z"}},{"id":"http://orcid.org/0000-0001-9128-3111","type":"users","attributes":{"given-names":"Hazem","family-name":"Abbas","credit-name":"Hazem
        Abbas","orcid":"0000-0001-9128-3111","github":null,"created":"2016-11-16T13:51:14Z","updated":"2016-11-16T13:51:14Z"}},{"id":"http://orcid.org/0000-0002-5264-8517","type":"users","attributes":{"given-names":"Fadhil","family-name":"Abbas","credit-name":"Fadhil
        Abbas","orcid":"0000-0002-5264-8517","github":null,"created":"2016-12-28T17:46:30Z","updated":"2016-12-28T17:46:30Z"}},{"id":"http://orcid.org/0000-0001-8001-328X","type":"users","attributes":{"given-names":"Eslam","family-name":"Abbas","credit-name":"Eslam
        Abbas","orcid":"0000-0001-8001-328X","github":null,"created":"2016-03-29T11:01:38Z","updated":"2016-03-29T11:01:38Z"}},{"id":"http://orcid.org/0000-0002-3128-606X","type":"users","attributes":{"given-names":"Badaruddin","family-name":"Abbasi","credit-name":"B.
        Abbasi","orcid":"0000-0002-3128-606X","github":null,"created":"2016-01-11T19:24:43Z","updated":"2016-01-11T19:24:43Z"}},{"id":"http://orcid.org/0000-0001-6099-421X","type":"users","attributes":{"given-names":"Mahdi","family-name":"Abbasi","credit-name":"Mahdi
        Abbasi","orcid":"0000-0001-6099-421X","github":null,"created":"2016-11-29T19:07:44Z","updated":"2016-11-29T19:07:44Z"}},{"id":"http://orcid.org/0000-0003-4805-8714","type":"users","attributes":{"given-names":"Iftikhar","family-name":"Abbasov","credit-name":"Iftikhar
        Abbasov","orcid":"0000-0003-4805-8714","github":null,"created":"2015-11-15T12:19:06Z","updated":"2016-12-17T21:07:59Z"}},{"id":"http://orcid.org/0000-0003-0899-0232","type":"users","attributes":{"given-names":"Abbas","family-name":"Abbaszadeh","credit-name":"Abbas
        Abbaszadeh","orcid":"0000-0003-0899-0232","github":null,"created":"2016-04-16T12:38:44Z","updated":"2016-04-16T12:38:44Z"}},{"id":"http://orcid.org/0000-0002-3736-2086","type":"users","attributes":{"given-names":"Mahmoud","family-name":"Abbaszadeh","credit-name":"Mahmoud
        Abbaszadeh","orcid":"0000-0002-3736-2086","github":null,"created":"2016-06-10T10:22:49Z","updated":"2016-06-10T10:22:49Z"}},{"id":"http://orcid.org/0000-0003-1955-3492","type":"users","attributes":{"given-names":"Davood","family-name":"Abbaszadeh","credit-name":"Davood
        Abbaszadeh","orcid":"0000-0003-1955-3492","github":null,"created":"2016-03-29T08:17:26Z","updated":"2016-03-29T08:17:26Z"}},{"id":"http://orcid.org/0000-0002-5175-4756","type":"users","attributes":{"given-names":"Kristopher","family-name":"Abbate","credit-name":"Kristopher
        Abbate","orcid":"0000-0002-5175-4756","github":null,"created":"2016-08-07T02:56:42Z","updated":"2016-08-07T02:56:58Z"}},{"id":"http://orcid.org/0000-0002-7820-5060","type":"users","attributes":{"given-names":"Maartje","family-name":"Abbenhuis","credit-name":"Maartje
        Abbenhuis","orcid":"0000-0002-7820-5060","github":null,"created":"2016-07-19T04:29:59Z","updated":"2016-07-19T04:29:59Z"}},{"id":"http://orcid.org/0000-0003-3287-3175","type":"users","attributes":{"given-names":"Rosalyn","family-name":"Abbott","credit-name":"Rosalyn
        Abbott","orcid":"0000-0003-3287-3175","github":null,"created":"2016-05-19T22:07:51Z","updated":"2016-05-19T22:07:51Z"}},{"id":"http://orcid.org/0000-0003-4745-896X","type":"users","attributes":{"given-names":"Nagwa","family-name":"Abd
        EL-Ghaffar","credit-name":"Nagwa Abd EL-Ghaffar","orcid":"0000-0003-4745-896X","github":null,"created":"2016-04-24T13:54:26Z","updated":"2016-04-24T13:54:26Z"}},{"id":"http://orcid.org/0000-0002-0637-5597","type":"users","attributes":{"given-names":"Nesreen","family-name":"Abd
        El-Ghany","credit-name":"Nesreen Abd El-Ghany","orcid":"0000-0002-0637-5597","github":null,"created":"2016-01-23T09:14:51Z","updated":"2016-01-23T09:16:16Z"}},{"id":"http://orcid.org/0000-0002-6506-7914","type":"users","attributes":{"given-names":"Mohamed","family-name":"Abd
        El-Wahed","credit-name":"Mohamed Abd El-Wahed","orcid":"0000-0002-6506-7914","github":null,"created":"2016-03-29T13:05:49Z","updated":"2016-03-29T13:05:50Z"}},{"id":"http://orcid.org/0000-0003-1616-5398","type":"users","attributes":{"given-names":"Ebtihal","family-name":"Abd
        Elhamid","credit-name":"Ebtihal Abd Elhamid","orcid":"0000-0003-1616-5398","github":null,"created":"2016-01-07T16:29:02Z","updated":"2016-01-07T16:29:02Z"}}],"links":{"self":"https://profiles.test.datacite.org/api/users?page%5Bnumber%5D=1\u0026page%5Bsize%5D=50","next":"https://profiles.test.datacite.org/api/users?page%5Bnumber%5D=2\u0026page%5Bsize%5D=50","last":"https://profiles.test.datacite.org/api/users?page%5Bnumber%5D=427\u0026page%5Bsize%5D=50"},"meta":{"total":21303,"total-pages":427,"page":1,"organizations":[{"id":"datacenter","title":"Datacenter","count":1},{"id":"member","title":"Member","count":9},{"id":"staff","title":"Staff","count":4}],"roles":[{"id":"member_admin","title":"Member
        Admin","count":8},{"id":"member_representative","title":"Member Representative","count":7},{"id":"staff_admin","title":"Staff
        Admin","count":4},{"id":"user","title":"User","count":21284}]}}'
    http_version: 
  recorded_at: Mon, 10 Jul 2017 12:31:20 GMT
recorded_with: VCR 2.9.3
