---
http_interactions:
- request:
    method: get
    uri: http://eventdata.labs.datacite.org/api/relations?page=1&per_page=25&relation_type_id=references
    body:
      encoding: US-ASCII
      string: ''
    headers:
      User-Agent:
      - Maremma - http://api.local
      Accept:
      - text/html,application/json,application/xml;q=0.9, text/plain;q=0.8,image/png,*/*;q=0.5
  response:
    status:
      code: 200
      message: ''
    headers:
      Server:
      - nginx/1.11.5
      Date:
      - Fri, 21 Oct 2016 08:56:21 GMT
      Content-Type:
      - application/json; charset=utf-8
      Connection:
      - keep-alive
      Status:
      - 200 OK
      Cache-Control:
      - max-age=0, private, must-revalidate
      Access-Control-Allow-Origin:
      - "*"
      Vary:
      - Accept-Encoding
      Access-Control-Max-Age:
      - '1728000'
      X-Xss-Protection:
      - 1; mode=block
      X-Request-Id:
      - 518d635c-5471-4614-b64f-b3fe2c648907
      Access-Control-Allow-Headers:
      - Origin, Content-Type, Accept, Authorization, Token
      Access-Control-Allow-Methods:
      - GET, POST, OPTIONS
      Etag:
      - W/"8ee9b18294d7a63ed1d93d723ddcc7ed"
      X-Frame-Options:
      - SAMEORIGIN
      X-Runtime:
      - '28.521712'
      X-Content-Type-Options:
      - nosniff
      X-Powered-By:
      - Phusion Passenger 5.0.30
    body:
      encoding: UTF-8
      string: '{"meta":{"status":"ok","message-type":"relation-list","message-version":"v7","total":2562699,"total_pages":102508,"page":1,"publishers":[{"id":"dk.gbif","title":"Global
        Biodiversity Information Facility","count":2492016},{"id":"tib.pangaea","title":"PANGAEA
        - Publishing Network for Geoscientific and Environmental Data","count":68196},{"id":"cdl.dryad","title":"Dryad","count":999},{"id":"cdl.ucdirl","title":"University
        College Dublin","count":723},{"id":"cisti.nrc","title":"National Research
        Council","count":228},{"id":"bl.imperial","title":"Imperial College London","count":109},{"id":"delft.datacent","title":"3TU
        Datacentrum","count":84},{"id":"tib.ldeo","title":"LDEO - Lamont-Doherty Earth
        Observatory, Columbia University","count":80},{"id":"estdoi.qdb","title":"Qsardb
        repository","count":78},{"id":"tib.gfz","title":"Geoforschungszentrum Potsdam","count":58},{"id":"cdl.ucsd","title":"UCSD","count":38},{"id":"tib.wdcc","title":"World
        Data Center for Climate","count":18},{"id":"inist.resif","title":"Réseau sismologique
        et géodésique français","count":12},{"id":"osti.pegasus","title":"Pegasus
        Toroidal Experiment, University of Wisconsin-Madison","count":12},{"id":"cdl.pgerr","title":"UTA
        Petroleum Engineering","count":11}],"relation_types":[{"id":"references","title":"References","count":2562699}],"sources":[{"id":"datacite_related","title":"DataCite
        (RelatedIdentifier)","count":2497532},{"id":"datacite_crossref","title":"DataCite
        (Crossref)","count":65166},{"id":"datacite_orcid","title":"DataCite (ORCID)","count":1}]},"relations":[{"subj_id":"http://doi.org/10.1594/PANGAEA.857257","obj_id":"http://doi.org/10.1016/J.QUASCIREV.2015.08.026","source_id":"datacite_crossref","publisher_id":"TIB.PANGAEA","relation_type_id":"references","total":1,"author":[{"family":"Häuselmann","given":"Anamaria
        Diana","ORCID":"http://orcid.org/0000-0003-2359-7340"},{"family":"Fleitmann","given":"Dominik"},{"family":"Cheng","given":"Hai"},{"family":"Tabersky","given":"Daniel"},{"family":"Günther","given":"Detlef"},{"family":"Edwards","given":"R
        Lawrence"}],"title":"Trace element concent of Stagamite MF-3 from Schafsloch
        Cave","published":"2015","issued":"2016-02-19T03:04:38Z","container-title":"PANGAEA
        - Data Publisher for Earth & Environmental Science","DOI":"10.1594/PANGAEA.857257","work_type_id":"dataset","results":{},"timestamp":"2016-09-18T06:22:27Z"},{"subj_id":"http://doi.org/10.1594/PANGAEA.859581","obj_id":"http://doi.org/10.1007/S00300-016-1995-X","source_id":"datacite_crossref","publisher_id":"TIB.PANGAEA","relation_type_id":"references","total":1,"author":[{"family":"Nowak","given":"Christopher","ORCID":"http://orcid.org/0000-0002-5405-9126"},{"family":"Laudien","given":"Jürgen"},{"family":"Sahade","given":"Ricardo"}],"title":"Counts
        of macrozoobenthic organisms settled in artificial soft sediment at Brandal","published":"2016","issued":"2016-05-12T03:05:50Z","container-title":"PANGAEA
        - Data Publisher for Earth & Environmental Science","DOI":"10.1594/PANGAEA.859581","work_type_id":"dataset","results":{},"timestamp":"2016-09-18T06:22:26Z"},{"subj_id":"http://doi.org/10.1594/PANGAEA.863063","obj_id":"http://doi.org/10.2312/BZPM_0695_2016","source_id":"datacite_related","publisher_id":"TIB.PANGAEA","relation_type_id":"references","total":1,"author":[{"family":"Appen","given":"Wilken-Jon","ORCID":"http://orcid.org/0000-0002-7200-0099"},{"family":"Stein","given":"Ruediger"},{"family":"Wisotzki","given":"Andreas"}],"title":"Physical
        oceanography during POLARSTERN cruise PS93.1 (ARK-XXIX/2.1)","published":"2016","issued":"2016-09-05T03:04:25Z","container-title":"PANGAEA
        - Data Publisher for Earth & Environmental Science","DOI":"10.1594/PANGAEA.863063","work_type_id":"dataset","results":{},"timestamp":"2016-09-17T19:07:37Z"},{"subj_id":"http://doi.org/10.1594/PANGAEA.861143","obj_id":"http://doi.org/10.1016/J.MARGEO.2016.03.005","source_id":"datacite_crossref","publisher_id":"TIB.PANGAEA","relation_type_id":"references","total":1,"author":[{"family":"Kulgemeyer","given":"Tobias"},{"family":"Dobeneck","given":"Tilo"},{"family":"Müller","given":"Hendrik"},{"family":"Bryan","given":"Karin
        R","ORCID":"http://orcid.org/0000-0002-4480-740X"},{"family":"Lange","given":"Willem
        P"},{"family":"Battershill","given":"Christopher N"}],"title":"Bay of Plenty
        subaquatic dunes","published":"2016","issued":"2016-07-07T03:24:26Z","container-title":"PANGAEA
        - Data Publisher for Earth & Environmental Science","DOI":"10.1594/PANGAEA.861143","work_type_id":"dataset","results":{},"timestamp":"2016-09-15T00:49:29Z"},{"subj_id":"http://doi.org/10.1594/PANGAEA.861181","obj_id":"http://doi.org/10.1016/J.MARGEO.2016.03.005","source_id":"datacite_crossref","publisher_id":"TIB.PANGAEA","relation_type_id":"references","total":1,"author":[{"family":"Kulgemeyer","given":"Tobias"},{"family":"Dobeneck","given":"Tilo"},{"family":"Müller","given":"Hendrik"},{"family":"Bryan","given":"Karin
        R","ORCID":"http://orcid.org/0000-0002-4480-740X"},{"family":"Lange","given":"Willem
        P"},{"family":"Battershill","given":"Christopher N"}],"title":"Collection
        of seafloor photos from the western Bay of Plenty","published":"2016","issued":"2016-07-07T03:24:27Z","container-title":"PANGAEA
        - Data Publisher for Earth & Environmental Science","DOI":"10.1594/PANGAEA.861181","work_type_id":"dataset","results":{},"timestamp":"2016-09-15T00:49:28Z"},{"subj_id":"http://doi.org/10.1594/PANGAEA.861052","obj_id":"http://doi.org/10.1016/J.MARGEO.2016.03.005","source_id":"datacite_crossref","publisher_id":"TIB.PANGAEA","relation_type_id":"references","total":1,"author":[{"family":"Kulgemeyer","given":"Tobias"},{"family":"Dobeneck","given":"Tilo"},{"family":"Müller","given":"Hendrik"},{"family":"Bryan","given":"Karin
        R","ORCID":"http://orcid.org/0000-0002-4480-740X"},{"family":"Lange","given":"Willem
        P"},{"family":"Battershill","given":"Christopher N"}],"title":"Bay of Plenty
        grain size measurements","published":"2016","issued":"2016-07-07T03:24:23Z","container-title":"PANGAEA
        - Data Publisher for Earth & Environmental Science","DOI":"10.1594/PANGAEA.861052","work_type_id":"dataset","results":{},"timestamp":"2016-09-15T00:49:28Z"},{"subj_id":"http://doi.org/10.1594/PANGAEA.861138","obj_id":"http://doi.org/10.1016/J.MARGEO.2016.03.005","source_id":"datacite_crossref","publisher_id":"TIB.PANGAEA","relation_type_id":"references","total":1,"author":[{"family":"Kulgemeyer","given":"Tobias"},{"family":"Dobeneck","given":"Tilo"},{"family":"Müller","given":"Hendrik"},{"family":"Bryan","given":"Karin
        R","ORCID":"http://orcid.org/0000-0002-4480-740X"},{"family":"Lange","given":"Willem
        P"},{"family":"Battershill","given":"Christopher N"}],"title":"Bay of Plenty
        facies classification","published":"2016","issued":"2016-07-07T03:24:24Z","container-title":"PANGAEA
        - Data Publisher for Earth & Environmental Science","DOI":"10.1594/PANGAEA.861138","work_type_id":"dataset","results":{},"timestamp":"2016-09-15T00:49:28Z"},{"subj_id":"http://doi.org/10.1594/PANGAEA.807895","obj_id":"http://doi.org/10.1029/2012GC004125","source_id":"datacite_crossref","publisher_id":"TIB.PANGAEA","relation_type_id":"references","total":1,"author":[{"family":"Badesab","given":"Firoz
        Kadar"},{"family":"Dobeneck","given":"Tilo"},{"family":"Bryan","given":"Karin
        R","ORCID":"http://orcid.org/0000-0002-4480-740X"},{"family":"Müller","given":"Hendrik"},{"family":"Briggs","given":"Roger
        M"},{"family":"Frederichs","given":"Thomas"},{"family":"Kwoll","given":"Eva"}],"title":"(Figure
        6a) Computed wave parameters and critical velocities for two dominant grain
        sizes","published":"2012","issued":"2013-03-26T20:21:35Z","container-title":"PANGAEA
        - Data Publisher for Earth & Environmental Science","DOI":"10.1594/PANGAEA.807895","work_type_id":"dataset","results":{},"timestamp":"2016-09-15T00:49:26Z"},{"subj_id":"http://doi.org/10.1594/PANGAEA.857256","obj_id":"http://doi.org/10.1016/J.QUASCIREV.2015.08.026","source_id":"datacite_crossref","publisher_id":"TIB.PANGAEA","relation_type_id":"references","total":1,"author":[{"family":"Häuselmann","given":"Anamaria
        Diana","ORCID":"http://orcid.org/0000-0003-2359-7340"},{"family":"Fleitmann","given":"Dominik"},{"family":"Cheng","given":"Hai"},{"family":"Tabersky","given":"Daniel"},{"family":"Günther","given":"Detlef"},{"family":"Edwards","given":"R
        Lawrence"}],"title":"Chronology and stable isotopes of Stagamite MF-3 from
        Schafsloch Cave","published":"2015","issued":"2016-02-19T03:04:36Z","container-title":"PANGAEA
        - Data Publisher for Earth & Environmental Science","DOI":"10.1594/PANGAEA.857256","work_type_id":"dataset","results":{},"timestamp":"2016-09-15T00:49:20Z"},{"subj_id":"http://doi.org/10.1594/PANGAEA.863598","obj_id":"http://doi.org/10.1002/2015JC011228","source_id":"datacite_crossref","publisher_id":"TIB.PANGAEA","relation_type_id":"references","total":1,"author":[{"family":"Mata","given":"Mauricio
        M","ORCID":"http://orcid.org/0000-0002-9028-8284"},{"family":"Garcia","given":"Carlos
        Alberto Eiras"}],"title":"Physical oceanography during Ary Rongel cruise GOAL2003","published":"2016","issued":"2016-09-02T03:02:30Z","container-title":"PANGAEA
        - Data Publisher for Earth & Environmental Science","DOI":"10.1594/PANGAEA.863598","work_type_id":"dataset","results":{},"timestamp":"2016-09-06T00:06:23Z"},{"subj_id":"http://doi.org/10.1594/PANGAEA.863600","obj_id":"http://doi.org/10.1002/2015JC011228","source_id":"datacite_crossref","publisher_id":"TIB.PANGAEA","relation_type_id":"references","total":1,"author":[{"family":"Mata","given":"Mauricio
        M","ORCID":"http://orcid.org/0000-0002-9028-8284"},{"family":"Garcia","given":"Carlos
        Alberto Eiras"}],"title":"Physical oceanography during Ary Rongel cruise GOAL2005","published":"2016","issued":"2016-09-02T03:02:33Z","container-title":"PANGAEA
        - Data Publisher for Earth & Environmental Science","DOI":"10.1594/PANGAEA.863600","work_type_id":"dataset","results":{},"timestamp":"2016-09-06T00:06:23Z"},{"subj_id":"http://doi.org/10.1594/PANGAEA.863599","obj_id":"http://doi.org/10.1002/2015JC011228","source_id":"datacite_crossref","publisher_id":"TIB.PANGAEA","relation_type_id":"references","total":1,"author":[{"family":"Mata","given":"Mauricio
        M","ORCID":"http://orcid.org/0000-0002-9028-8284"},{"family":"Garcia","given":"Carlos
        Alberto Eiras"}],"title":"Physical oceanography during Ary Rongel cruise GOAL2004","published":"2016","issued":"2016-09-02T03:02:32Z","container-title":"PANGAEA
        - Data Publisher for Earth & Environmental Science","DOI":"10.1594/PANGAEA.863599","work_type_id":"dataset","results":{},"timestamp":"2016-09-06T00:06:23Z"},{"subj_id":"http://doi.org/10.1594/PANGAEA.863598","obj_id":"http://doi.org/10.1002/JGRC.20303","source_id":"datacite_crossref","publisher_id":"TIB.PANGAEA","relation_type_id":"references","total":1,"author":[{"family":"Mata","given":"Mauricio
        M","ORCID":"http://orcid.org/0000-0002-9028-8284"},{"family":"Garcia","given":"Carlos
        Alberto Eiras"}],"title":"Physical oceanography during Ary Rongel cruise GOAL2003","published":"2016","issued":"2016-09-02T03:02:30Z","container-title":"PANGAEA
        - Data Publisher for Earth & Environmental Science","DOI":"10.1594/PANGAEA.863598","work_type_id":"dataset","results":{},"timestamp":"2016-09-06T00:06:22Z"},{"subj_id":"http://doi.org/10.1594/PANGAEA.863599","obj_id":"http://doi.org/10.1002/JGRC.20303","source_id":"datacite_crossref","publisher_id":"TIB.PANGAEA","relation_type_id":"references","total":1,"author":[{"family":"Mata","given":"Mauricio
        M","ORCID":"http://orcid.org/0000-0002-9028-8284"},{"family":"Garcia","given":"Carlos
        Alberto Eiras"}],"title":"Physical oceanography during Ary Rongel cruise GOAL2004","published":"2016","issued":"2016-09-02T03:02:32Z","container-title":"PANGAEA
        - Data Publisher for Earth & Environmental Science","DOI":"10.1594/PANGAEA.863599","work_type_id":"dataset","results":{},"timestamp":"2016-09-04T20:46:47Z"},{"subj_id":"http://doi.org/10.1594/PANGAEA.863600","obj_id":"http://doi.org/10.1002/JGRC.20303","source_id":"datacite_crossref","publisher_id":"TIB.PANGAEA","relation_type_id":"references","total":1,"author":[{"family":"Mata","given":"Mauricio
        M","ORCID":"http://orcid.org/0000-0002-9028-8284"},{"family":"Garcia","given":"Carlos
        Alberto Eiras"}],"title":"Physical oceanography during Ary Rongel cruise GOAL2005","published":"2016","issued":"2016-09-02T03:02:33Z","container-title":"PANGAEA
        - Data Publisher for Earth & Environmental Science","DOI":"10.1594/PANGAEA.863600","work_type_id":"dataset","results":{},"timestamp":"2016-09-04T20:46:47Z"},{"subj_id":"http://doi.org/10.1594/PANGAEA.860669","obj_id":"http://doi.org/10.1016/J.GEOMORPH.2016.07.017","source_id":"datacite_crossref","publisher_id":"TIB.PANGAEA","relation_type_id":"references","total":1,"author":[{"family":"Fraccascia","given":"Serena"},{"family":"Winter","given":"Christian"},{"family":"Ernstsen","given":"Verner
        Brandbyge","ORCID":"http://orcid.org/0000-0003-0849-2938"},{"family":"Hebbeln","given":"Dierk"}],"title":"3.
        Scale average variance of dune class large dunes (10-100 m) from Knudedyb,
        Danish Wadden Sea","published":"2016","issued":"2016-09-01T03:11:05Z","container-title":"PANGAEA
        - Data Publisher for Earth & Environmental Science","DOI":"10.1594/PANGAEA.860669","work_type_id":"dataset","results":{},"timestamp":"2016-09-04T20:46:30Z"},{"subj_id":"http://doi.org/10.1594/PANGAEA.860668","obj_id":"http://doi.org/10.1016/J.GEOMORPH.2016.07.017","source_id":"datacite_crossref","publisher_id":"TIB.PANGAEA","relation_type_id":"references","total":1,"author":[{"family":"Fraccascia","given":"Serena"},{"family":"Winter","given":"Christian"},{"family":"Ernstsen","given":"Verner
        Brandbyge","ORCID":"http://orcid.org/0000-0003-0849-2938"},{"family":"Hebbeln","given":"Dierk"}],"title":"2.
        Scale average variance of dune class medium dunes (5-10 m) from Knudedyb,
        Danish Wadden Sea","published":"2016","issued":"2016-09-01T03:11:04Z","container-title":"PANGAEA
        - Data Publisher for Earth & Environmental Science","DOI":"10.1594/PANGAEA.860668","work_type_id":"dataset","results":{},"timestamp":"2016-09-04T14:15:51Z"},{"subj_id":"http://doi.org/10.1594/PANGAEA.861740","obj_id":"http://doi.org/10.1002/2015PA002819","source_id":"datacite_crossref","publisher_id":"TIB.PANGAEA","relation_type_id":"references","total":1,"author":[{"family":"Kretschmer","given":"Kerstin"},{"family":"Kucera","given":"Michal","ORCID":"http://orcid.org/0000-0002-7817-9018"},{"family":"Schulz","given":"Michael"}],"title":"Compilation
        of planktonic foraminiferal census data for Heinrich Stadial 1 for the North
        Atlantic Ocean","published":"2016","issued":"2016-09-01T03:10:54Z","container-title":"PANGAEA
        - Data Publisher for Earth & Environmental Science","DOI":"10.1594/PANGAEA.861740","work_type_id":"dataset","results":{},"timestamp":"2016-09-04T14:15:49Z"},{"subj_id":"http://doi.org/10.1594/PANGAEA.861742","obj_id":"http://doi.org/10.1002/2015PA002819","source_id":"datacite_crossref","publisher_id":"TIB.PANGAEA","relation_type_id":"references","total":1,"author":[{"family":"Kretschmer","given":"Kerstin"},{"family":"Kucera","given":"Michal","ORCID":"http://orcid.org/0000-0002-7817-9018"},{"family":"Schulz","given":"Michael"}],"title":"Planktonic
        foraminifera model PLAFOM coupled to an ecosystem model","published":"2016","issued":"2016-09-01T03:10:56Z","container-title":"PANGAEA
        - Data Publisher for Earth & Environmental Science","DOI":"10.1594/PANGAEA.861742","work_type_id":"dataset","results":{},"timestamp":"2016-09-04T14:15:49Z"},{"subj_id":"http://doi.org/10.1594/PANGAEA.848654","obj_id":"http://doi.org/10.1007/S11104-016-3036-5","source_id":"datacite_crossref","publisher_id":"TIB.PANGAEA","relation_type_id":"references","total":1,"author":[{"family":"Ali","given":"Hamada
        E","ORCID":"http://orcid.org/0000-0002-7062-9344"},{"family":"Reineking","given":"Björn","ORCID":"http://orcid.org/0000-0001-5277-9181"},{"family":"Münkemüller","given":"Tamara"}],"title":"Plant
        parameters of agricultural field margins of South Korea","published":"2015","issued":"2015-09-08T03:03:03Z","container-title":"PANGAEA
        - Data Publisher for Earth & Environmental Science","DOI":"10.1594/PANGAEA.848654","URL":"https://doi.pangaea.de/10.1594/PANGAEA.848654","work_type_id":"dataset","results":{},"timestamp":"2016-09-04T14:15:33Z"},{"subj_id":"http://doi.org/10.1594/PANGAEA.848653","obj_id":"http://doi.org/10.1007/S11104-016-3036-5","source_id":"datacite_crossref","publisher_id":"TIB.PANGAEA","relation_type_id":"references","total":1,"author":[{"family":"Ali","given":"Hamada
        E","ORCID":"http://orcid.org/0000-0002-7062-9344"},{"family":"Reineking","given":"Björn","ORCID":"http://orcid.org/0000-0001-5277-9181"},{"family":"Münkemüller","given":"Tamara"}],"title":"Soil
        composition and physical parameters of agricultural field margins of South
        Korea","published":"2015","issued":"2015-09-08T03:03:02Z","container-title":"PANGAEA
        - Data Publisher for Earth & Environmental Science","DOI":"10.1594/PANGAEA.848653","URL":"https://doi.pangaea.de/10.1594/PANGAEA.848653","work_type_id":"dataset","results":{},"timestamp":"2016-09-04T14:15:32Z"},{"subj_id":"http://doi.org/10.1594/PANGAEA.860619","obj_id":"http://doi.org/10.1016/J.GEOMORPH.2016.07.017","source_id":"datacite_crossref","publisher_id":"TIB.PANGAEA","relation_type_id":"references","total":1,"author":[{"family":"Fraccascia","given":"Serena"},{"family":"Winter","given":"Christian"},{"family":"Ernstsen","given":"Verner
        Brandbyge","ORCID":"http://orcid.org/0000-0003-0849-2938"},{"family":"Hebbeln","given":"Dierk"}],"title":"1.
        Scale average variance of dune class small dunes (1-5 m) from Knudedyb, Danish
        Wadden Sea","published":"2016","issued":"2016-09-01T03:10:32Z","container-title":"PANGAEA
        - Data Publisher for Earth & Environmental Science","DOI":"10.1594/PANGAEA.860619","work_type_id":"dataset","results":{},"timestamp":"2016-09-03T13:47:03Z"},{"subj_id":"http://doi.org/10.1594/PANGAEA.860676","obj_id":"http://doi.org/10.1016/J.GEOMORPH.2016.07.017","source_id":"datacite_crossref","publisher_id":"TIB.PANGAEA","relation_type_id":"references","total":1,"author":[{"family":"Fraccascia","given":"Serena"},{"family":"Winter","given":"Christian"},{"family":"Ernstsen","given":"Verner
        Brandbyge","ORCID":"http://orcid.org/0000-0003-0849-2938"},{"family":"Hebbeln","given":"Dierk"}],"title":"4.
        Scale average variance of dune class very large dunes (100-500 m) from Knudedyb,
        Danish Wadden Sea","published":"2016","issued":"2016-09-01T03:11:03Z","container-title":"PANGAEA
        - Data Publisher for Earth & Environmental Science","DOI":"10.1594/PANGAEA.860676","work_type_id":"dataset","results":{},"timestamp":"2016-09-03T13:47:03Z"},{"subj_id":"http://doi.org/10.1594/PANGAEA.831499","obj_id":"http://doi.org/10.5194/ESSD-6-317-2014","source_id":"datacite_crossref","publisher_id":"TIB.PANGAEA","relation_type_id":"references","total":1,"author":[{"family":"Lehodey","given":"Patrick","ORCID":"http://orcid.org/0000-0002-2753-4796"},{"family":"Senina","given":"Inna"},{"family":"Dragon","given":"Anne-Cécile"},{"family":"Arrizabalaga","given":"Haritz"}],"title":"Spatially
        explicit estimates of North Atlantic albacore tuna (Thunnus alalunga) biomass
        in the North Atlantic for the period 1956-2010 - Gridded data product (NetCDF)","published":"2014","issued":"2014-05-13T03:05:52Z","container-title":"PANGAEA
        - Data Publisher for Earth & Environmental Science","DOI":"10.1594/PANGAEA.831499","work_type_id":"dataset","results":{},"timestamp":"2016-09-01T22:08:40Z"},{"subj_id":"http://doi.org/10.1594/PANGAEA.828226","obj_id":"http://doi.org/10.5194/ESSD-6-317-2014","source_id":"datacite_crossref","publisher_id":"TIB.PANGAEA","relation_type_id":"references","total":1,"author":[],"title":"Spatially
        explicit estimates of stock size, structure and biomass of North Atlantic
        albacore tuna (Thunnus alalunga) in the North Atlantic for the period 1973-2011,
        compiled from statistics about ICCAT fishery region L2","published":"2014","issued":"2014-03-04T03:05:23Z","DOI":"10.1594/PANGAEA.828226","work_type_id":"dataset","results":{},"timestamp":"2016-09-01T22:08:40Z"}]}'
    http_version: 
  recorded_at: Fri, 21 Oct 2016 08:56:22 GMT
- request:
    method: get
    uri: http://eventdata.labs.datacite.org/api/publishers?ids=dk.gbif,tib.pangaea,cdl.dryad,cdl.ucdirl,cisti.nrc,bl.imperial,delft.datacent,tib.ldeo,estdoi.qdb,tib.gfz,cdl.ucsd,tib.wdcc,inist.resif,osti.pegasus,cdl.pgerr&page=1&per_page=25
    body:
      encoding: US-ASCII
      string: ''
    headers:
      User-Agent:
      - Maremma - http://api.local
      Accept:
      - text/html,application/json,application/xml;q=0.9, text/plain;q=0.8,image/png,*/*;q=0.5
  response:
    status:
      code: 200
      message: ''
    headers:
      Server:
      - nginx/1.11.5
      Date:
      - Fri, 21 Oct 2016 08:56:22 GMT
      Content-Type:
      - application/json; charset=utf-8
      Connection:
      - keep-alive
      Status:
      - 200 OK
      Cache-Control:
      - max-age=0, private, must-revalidate
      Access-Control-Allow-Origin:
      - "*"
      Vary:
      - Accept-Encoding
      Access-Control-Max-Age:
      - '1728000'
      X-Xss-Protection:
      - 1; mode=block
      X-Request-Id:
      - a9da0706-40d0-4d4c-bf07-aabbae8d1179
      Access-Control-Allow-Headers:
      - Origin, Content-Type, Accept, Authorization, Token
      Access-Control-Allow-Methods:
      - GET, POST, OPTIONS
      Etag:
      - W/"581deeeb831504402a808db7fbb29e4e"
      X-Frame-Options:
      - SAMEORIGIN
      X-Runtime:
      - '0.081767'
      X-Content-Type-Options:
      - nosniff
      X-Powered-By:
      - Phusion Passenger 5.0.30
    body:
      encoding: UTF-8
      string: '{"meta":{"status":"ok","message-type":"publisher-list","message-version":"v7","total":15,"total_pages":1,"page":1,"registration_agencies":[{"id":"datacite","title":"DataCite","count":15}],"members":[{"id":"delft","title":"DELFT","count":1},{"id":"cdl","title":"CDL","count":4},{"id":"tib","title":"TIB","count":4},{"id":"dk","title":"DK","count":1},{"id":"bl","title":"BL","count":1},{"id":"cisti","title":"CISTI","count":1},{"id":"osti","title":"OSTI","count":1},{"id":"estdoi","title":"ESTDOI","count":1},{"id":"inist","title":"INIST","count":1}]},"publishers":[{"id":"DELFT.DATACENT","title":"3TU
        Datacentrum","prefixes":[],"registration_agency_id":"datacite","member_id":"DELFT","timestamp":"2016-10-21T08:53:37Z"},{"id":"CDL.DRYAD","title":"Dryad","prefixes":[],"registration_agency_id":"datacite","member_id":"CDL","timestamp":"2016-10-21T08:54:20Z"},{"id":"TIB.GFZ","title":"Geoforschungszentrum
        Potsdam","prefixes":[],"registration_agency_id":"datacite","member_id":"TIB","timestamp":"2016-10-21T08:54:38Z"},{"id":"DK.GBIF","title":"Global
        Biodiversity Information Facility","prefixes":[],"registration_agency_id":"datacite","member_id":"DK","timestamp":"2016-10-21T08:54:39Z"},{"id":"BL.IMPERIAL","title":"Imperial
        College London","prefixes":[],"registration_agency_id":"datacite","member_id":"BL","timestamp":"2016-10-21T08:54:47Z"},{"id":"TIB.LDEO","title":"LDEO
        - Lamont-Doherty Earth Observatory, Columbia University","prefixes":[],"registration_agency_id":"datacite","member_id":"TIB","timestamp":"2016-10-21T08:55:43Z"},{"id":"CISTI.NRC","title":"National
        Research Council","prefixes":[],"registration_agency_id":"datacite","member_id":"CISTI","timestamp":"2016-10-21T08:55:54Z"},{"id":"TIB.PANGAEA","title":"PANGAEA
        - Publishing Network for Geoscientific and Environmental Data","prefixes":[],"registration_agency_id":"datacite","member_id":"TIB","timestamp":"2016-10-21T08:56:02Z"},{"id":"OSTI.PEGASUS","title":"Pegasus
        Toroidal Experiment, University of Wisconsin-Madison","prefixes":[],"registration_agency_id":"datacite","member_id":"OSTI","timestamp":"2016-10-21T08:56:03Z"},{"id":"ESTDOI.QDB","title":"Qsardb
        repository","prefixes":[],"registration_agency_id":"datacite","member_id":"ESTDOI","timestamp":"2016-10-21T08:56:09Z"},{"id":"INIST.RESIF","title":"Réseau
        sismologique et géodésique français","prefixes":[],"registration_agency_id":"datacite","member_id":"INIST","timestamp":"2016-10-21T08:56:12Z"},{"id":"CDL.UCSD","title":"UCSD","prefixes":[],"registration_agency_id":"datacite","member_id":"CDL","timestamp":"2016-10-21T08:53:20Z"},{"id":"CDL.UCDIRL","title":"University
        College Dublin","prefixes":[],"registration_agency_id":"datacite","member_id":"CDL","timestamp":"2016-10-21T08:53:23Z"},{"id":"CDL.PGERR","title":"UTA
        Petroleum Engineering","prefixes":[],"registration_agency_id":"datacite","member_id":"CDL","timestamp":"2016-10-21T08:53:30Z"},{"id":"TIB.WDCC","title":"World
        Data Center for Climate","prefixes":[],"registration_agency_id":"datacite","member_id":"TIB","timestamp":"2016-10-21T08:53:34Z"}]}'
    http_version: 
  recorded_at: Fri, 21 Oct 2016 08:56:22 GMT
recorded_with: VCR 2.9.3
