---
http_interactions:
- request:
    method: get
    uri: https://eventdata.datacite.org/api/contributors?page=1&per_page=50
    body:
      encoding: US-ASCII
      string: ''
    headers:
      User-Agent:
      - Maremma - http://api.local
      Accept:
      - application/json
  response:
    status:
      code: 200
      message: ''
    headers:
      Server:
      - nginx/1.11.1
      Date:
      - Sat, 02 Jul 2016 17:02:57 GMT
      Content-Type:
      - application/json; charset=utf-8
      Connection:
      - keep-alive
      Status:
      - 200 OK
      Cache-Control:
      - max-age=0, private, must-revalidate
      Access-Control-Allow-Origin:
      - "*"
      Vary:
      - Accept-Encoding
      Access-Control-Max-Age:
      - '1728000'
      X-Xss-Protection:
      - 1; mode=block
      X-Request-Id:
      - be3f2af7-d82c-405e-8705-f4320a36b240
      Access-Control-Allow-Methods:
      - POST, GET, OPTIONS
      Etag:
      - W/"e0d7f7021645d72b67fde12325a35869"
      X-Frame-Options:
      - SAMEORIGIN
      X-Runtime:
      - '0.035508'
      X-Content-Type-Options:
      - nosniff
      Set-Cookie:
      - __profilin=p%3Dt; path=/
      X-Powered-By:
      - Phusion Passenger 5.0.29
      Access-Control-Allow-Headers:
      - Content-Type,Accept,Accept-Encoding,Origin,User-Agent,Cache-Control,Keep-Alive
    body:
      encoding: UTF-8
      string: '{"meta":{"status":"ok","message-type":"contributor-list","message-version":"v7","total":6461,"total_pages":130,"page":1},"contributors":[{"id":"https://github.com/mne-tools","timestamp":"1970-01-01T00:00:00Z"},{"id":"http://orcid.org/0000-0002-5164-0281","given":"Peyman","timestamp":"1970-01-01T00:00:00Z"},{"id":"https://github.com/Ehsanizadi","timestamp":"1970-01-01T00:00:00Z"},{"id":"https://github.com/bwringe","timestamp":"1970-01-01T00:00:00Z"},{"id":"https://github.com/pierriko","timestamp":"1970-01-01T00:00:00Z"},{"id":"https://github.com/OpenGeoscience","timestamp":"1970-01-01T00:00:00Z"},{"id":"https://github.com/cmbant","timestamp":"1970-01-01T00:00:00Z"},{"id":"https://github.com/sandraTL","timestamp":"1970-01-01T00:00:00Z"},{"id":"https://github.com/dncgst","timestamp":"1970-01-01T00:00:00Z"},{"id":"https://github.com/RNDITS","timestamp":"1970-01-01T00:00:00Z"},{"id":"http://orcid.org/0000-0001-8944-9522","given":"Михаил","timestamp":"1970-01-01T00:00:00Z"},{"id":"https://github.com/EducationalTestingService","timestamp":"1970-01-01T00:00:00Z"},{"id":"https://github.com/apeltzer","timestamp":"1970-01-01T00:00:00Z"},{"id":"https://github.com/chili-epfl","timestamp":"1970-01-01T00:00:00Z"},{"id":"https://github.com/pupil-labs","timestamp":"1970-01-01T00:00:00Z"},{"id":"https://github.com/wtolson","timestamp":"1970-01-01T00:00:00Z"},{"id":"https://github.com/gilmore-lab","timestamp":"1970-01-01T00:00:00Z"},{"id":"https://github.com/hectornieto","timestamp":"1970-01-01T00:00:00Z"},{"id":"https://github.com/pyepics","timestamp":"1970-01-01T00:00:00Z"},{"id":"https://github.com/jimmyshadow1","timestamp":"1970-01-01T00:00:00Z"},{"id":"https://github.com/Richardjmorton","timestamp":"1970-01-01T00:00:00Z"},{"id":"https://github.com/medusa-project","timestamp":"1970-01-01T00:00:00Z"},{"id":"https://github.com/poormanme","timestamp":"1970-01-01T00:00:00Z"},{"id":"http://orcid.org/0000-0002-9717-5071","given":"Dr.V.Padmaja","timestamp":"1970-01-01T00:00:00Z"},{"id":"https://github.com/Angusman17","timestamp":"1970-01-01T00:00:00Z"},{"id":"https://github.com/kotushsrdjan","timestamp":"1970-01-01T00:00:00Z"},{"id":"https://github.com/AAROC","timestamp":"1970-01-01T00:00:00Z"},{"id":"https://github.com/ComputationalRadiationPhysics","timestamp":"1970-01-01T00:00:00Z"},{"id":"https://github.com/casmlab","timestamp":"1970-01-01T00:00:00Z"},{"id":"https://github.com/mabenallal","timestamp":"1970-01-01T00:00:00Z"},{"id":"https://github.com/RyanIKolkmeier","timestamp":"1970-01-01T00:00:00Z"},{"id":"https://github.com/NCMRWF","timestamp":"1970-01-01T00:00:00Z"},{"id":"https://github.com/dr-rodriguez","timestamp":"1970-01-01T00:00:00Z"},{"id":"https://github.com/omeka","timestamp":"1970-01-01T00:00:00Z"},{"id":"https://github.com/lingpy","timestamp":"1970-01-01T00:00:00Z"},{"id":"https://github.com/magic-sph","timestamp":"1970-01-01T00:00:00Z"},{"id":"https://github.com/DallasTrinkle","timestamp":"1970-01-01T00:00:00Z"},{"id":"https://github.com/biocaddie","timestamp":"1970-01-01T00:00:00Z"},{"id":"https://github.com/m-labs","timestamp":"1970-01-01T00:00:00Z"},{"id":"https://github.com/psolymos","timestamp":"1970-01-01T00:00:00Z"},{"id":"https://github.com/flav-io","timestamp":"1970-01-01T00:00:00Z"},{"id":"https://github.com/sabgaby","timestamp":"1970-01-01T00:00:00Z"},{"id":"https://github.com/dpryan79","timestamp":"1970-01-01T00:00:00Z"},{"id":"https://github.com/markrobinsonuzh","timestamp":"1970-01-01T00:00:00Z"},{"id":"https://github.com/chapmandu2","timestamp":"1970-01-01T00:00:00Z"},{"id":"https://github.com/lancelothk","timestamp":"1970-01-01T00:00:00Z"},{"id":"https://github.com/ethanbrower","timestamp":"1970-01-01T00:00:00Z"},{"id":"http://orcid.org/0000-0002-6594-7655","timestamp":"1970-01-01T00:00:00Z"},{"id":"https://github.com/nextgenusfs","timestamp":"1970-01-01T00:00:00Z"},{"id":"https://github.com/gdfgh","timestamp":"1970-01-01T00:00:00Z"}]}'
    http_version: 
  recorded_at: Sat, 02 Jul 2016 17:02:51 GMT
recorded_with: VCR 2.9.3
